2015-08-14 00:19:00,30,78,22.5,98,18.5,1005.6,1.7,2.4,2,153.0,0
2015-08-14 00:49:00,30,78,22.5,98,18.4,1005.2,2.0,3.1,2,153.0,0
2015-08-14 01:19:00,30,78,22.5,99,18.3,1004.8,1.0,1.7,4,153.0,0
2015-08-14 01:49:00,30,78,22.5,99,18.7,1004.3,0.3,1.0,2,153.0,0
2015-08-14 02:19:00,30,77,22.4,99,18.7,1003.9,0,0.3,8,153.0,0
2015-08-14 02:49:00,30,77,22.4,98,19.0,1003.4,0.7,1.4,8,153.0,0
2015-08-14 03:19:00,30,77,22.3,98,19.1,1003.5,1.4,2.0,10,153.0,0
2015-08-14 03:49:00,30,78,22.3,98,19.0,1003.6,1.4,1.7,10,153.0,0
2015-08-14 04:19:00,30,78,22.3,98,19.1,1003.4,1.4,1.7,10,153.0,0
2015-08-14 04:49:00,30,78,22.3,98,18.9,1003.1,0,1.0,10,153.0,0
2015-08-14 05:19:00,30,78,22.3,98,18.9,1003.3,2.0,2.7,12,153.0,0
2015-08-14 05:49:00,30,78,22.3,98,19.0,1003.5,1.0,1.7,10,153.0,0
2015-08-14 06:19:00,30,78,22.3,98,19.0,1003.4,1.7,2.0,10,153.0,0
2015-08-14 06:49:00,30,78,22.3,98,19.2,1003.4,1.4,2.0,9,153.0,0
2015-08-14 07:19:00,30,78,22.4,97,19.2,1003.5,2.0,2.4,10,153.0,0
2015-08-14 07:49:00,30,78,22.4,97,19.5,1003.3,2.7,3.7,11,153.0,0
2015-08-14 08:19:00,30,78,22.4,96,19.5,1003.6,3.1,4.1,10,153.6,0
2015-08-14 08:49:00,30,78,22.5,96,19.5,1003.4,2.7,3.4,10,153.6,0
2015-08-14 09:19:00,30,78,22.5,93,20.2,1003.6,4.4,5.8,,153.6,2048
2015-08-14 09:49:00,30,79,22.7,84,20.7,1003.4,3.4,4.8,12,153.6,0
2015-08-14 10:19:00,30,79,22.8,79,21.2,1003.2,5.1,6.5,14,153.6,0
2015-08-14 10:49:00,30,78,23.1,75,21.9,1003.3,3.4,5.1,14,153.6,0
2015-08-14 11:19:00,30,74,23.8,69,22.7,1003.2,4.8,6.1,12,153.6,0
2015-08-14 11:49:00,30,68,23.9,68,22.3,1003.4,5.1,6.8,10,153.6,0
2015-08-14 12:19:00,30,69,23.2,68,22.4,1003.1,3.7,5.1,14,153.6,0
2015-08-14 12:49:00,30,70,22.6,69,22.0,1003.5,4.4,5.8,10,153.6,0
2015-08-14 13:19:00,30,71,22.2,70,21.9,1003.5,4.4,5.4,10,153.6,0
2015-08-14 13:49:00,30,75,21.9,72,21.6,1003.3,3.1,4.4,11,153.6,0
2015-08-14 14:19:00,30,74,22.0,71,22.2,1003.2,3.4,5.8,14,153.6,0
2015-08-14 14:49:00,30,71,22.3,64,23.4,1002.6,3.7,5.1,10,153.6,0
2015-08-14 15:19:00,30,73,22.6,67,23.6,1002.7,2.7,4.1,10,153.6,0
2015-08-14 15:49:00,30,72,22.9,67,22.8,1002.8,1.0,2.4,5,153.6,0
2015-08-14 16:19:00,30,74,23.0,69,22.4,1002.7,2.0,2.7,14,153.6,0
2015-08-14 16:49:00,30,72,22.9,70,22.4,1002.6,1.7,2.4,13,153.6,0
2015-08-14 17:19:00,30,74,23.0,69,22.6,1002.8,1.4,2.0,14,153.6,0
2015-08-14 17:49:00,30,73,23.1,70,22.2,1002.7,0.7,2.0,0,153.6,0
2015-08-14 18:19:00,30,74,23.1,75,21.4,1003.0,0.7,1.7,14,153.6,0
2015-08-14 18:49:00,30,73,23.2,79,20.1,1003.0,0.3,1.0,8,153.6,0
2015-08-14 19:19:00,30,73,23.1,88,18.6,1003.5,0.3,1.4,8,154.2,0
2015-08-14 19:49:00,30,73,23.0,92,18.0,1003.7,0.3,1.4,4,154.2,0
2015-08-14 20:19:00,30,73,23.0,90,17.6,1003.8,0,0.3,8,154.2,0
2015-08-14 20:49:00,30,73,22.9,90,17.3,1004.2,0,0,6,154.2,0
2015-08-14 21:19:00,30,73,22.9,90,17.3,1004.3,0,0.3,6,154.2,0
2015-08-14 21:49:00,30,72,22.9,89,17.1,1004.9,0.3,1.4,5,154.2,0
2015-08-14 22:19:00,30,73,22.9,89,17.1,1004.9,0,0.3,8,154.2,0
2015-08-14 22:49:00,30,73,22.9,90,16.9,1004.9,0,0.7,8,154.2,0
2015-08-14 23:19:00,30,74,22.9,91,16.8,1004.8,0,0,10,154.2,0
2015-08-14 23:49:00,30,73,22.9,91,16.7,1004.8,0,0,4,154.2,0
