2015-08-11 00:17:00,30,68,24.3,89,17.6,1015.2,0,0,6,146.7,0
2015-08-11 00:47:00,30,67,24.2,89,17.1,1015.3,0.7,1.4,14,146.7,0
2015-08-11 01:17:00,30,66,24.1,87,16.5,1015.6,0.3,1.4,12,146.7,0
2015-08-11 01:47:00,30,65,23.9,83,16.3,1015.6,0,0.3,8,146.7,0
2015-08-11 02:17:00,30,64,23.7,80,16.0,1015.4,0,0,14,146.7,0
2015-08-11 02:47:00,30,63,23.6,79,15.7,1015.7,0.3,1.4,6,146.7,0
2015-08-11 03:17:00,30,63,23.4,78,15.5,1015.7,0.3,0.7,3,146.7,0
2015-08-11 03:47:00,30,62,23.3,77,15.2,1015.7,0,0,6,146.7,0
2015-08-11 04:17:00,30,62,23.3,78,15.1,1016.2,0,0,6,146.7,0
2015-08-11 04:47:00,30,62,23.3,79,14.9,1016.3,0,0,6,146.7,0
2015-08-11 05:17:00,30,61,23.4,77,15.1,1016.3,0,0,6,146.7,0
2015-08-11 05:47:00,30,58,23.1,76,15.3,1016.6,0,0.3,6,146.7,0
2015-08-11 06:17:00,30,59,22.9,76,15.6,1016.7,0,0.7,8,146.7,0
2015-08-11 06:47:00,30,59,22.8,72,16.3,1016.7,0,1.0,2,146.7,0
2015-08-11 07:17:00,30,57,22.5,69,16.6,1017.2,0,0.3,8,146.7,0
2015-08-11 07:47:00,30,58,22.5,68,17.6,1017.5,0,1.0,0,146.7,0
2015-08-11 08:17:00,30,58,22.6,59,19.4,1017.7,0,0.7,2,146.7,0
2015-08-11 08:47:00,30,55,22.3,58,19.1,1017.6,1.0,1.7,2,146.7,0
2015-08-11 09:17:00,30,58,22.3,59,19.7,1017.7,1.0,1.4,2,146.7,0
2015-08-11 09:47:00,30,55,23.0,58,20.0,1018.5,1.0,1.4,8,146.7,0
2015-08-11 10:17:00,30,55,23.5,60,19.9,1018.5,0.7,1.0,10,146.7,0
2015-08-11 10:47:00,30,55,23.8,64,19.3,1018.6,1.7,2.4,12,146.7,0
2015-08-11 11:17:00,30,55,23.9,64,19.3,1019.1,1.0,1.4,10,146.7,0
2015-08-11 11:47:00,30,55,23.7,65,19.5,1019.2,1.0,1.7,8,146.7,0
2015-08-11 12:17:00,30,56,23.3,65,19.7,1018.8,1.4,1.7,8,146.7,0
2015-08-11 12:47:00,30,57,23.1,65,19.9,1019.0,0.7,1.0,8,146.7,0
2015-08-11 13:17:00,30,57,23.2,64,20.1,1019.1,0,0.3,8,146.7,0
2015-08-11 13:47:00,30,58,23.3,62,20.8,1018.8,1.0,1.7,6,146.7,0
2015-08-11 14:17:00,30,59,23.6,65,20.6,1018.9,1.0,1.4,8,146.7,0
2015-08-11 14:47:00,30,60,23.4,70,20.2,1018.8,1.4,2.0,5,146.7,0
2015-08-11 15:17:00,30,62,23.3,74,19.9,1018.8,1.7,2.4,8,146.7,0
2015-08-11 15:47:00,30,64,23.0,77,19.7,1019.0,2.7,3.4,6,146.7,0
2015-08-11 16:17:00,30,64,22.2,75,19.6,1019.1,2.7,3.7,6,146.7,0
2015-08-11 16:47:00,30,67,21.9,75,19.5,1019.2,2.0,2.7,6,146.7,0
2015-08-11 17:17:00,30,64,22.0,71,19.7,1019.4,1.4,2.0,6,146.7,0
2015-08-11 17:47:00,30,63,22.1,73,19.0,1019.3,1.7,2.7,4,146.7,0
2015-08-11 18:17:00,30,63,22.1,74,18.7,1019.2,0,0.3,6,146.7,0
2015-08-11 18:47:00,30,62,22.2,73,18.4,1019.3,1.0,1.7,4,146.7,0
2015-08-11 19:17:00,30,61,22.0,73,18.3,1019.5,1.0,1.7,6,146.7,0
2015-08-11 19:47:00,30,63,21.8,75,18.1,1019.8,0,1.0,6,146.7,0
2015-08-11 20:17:00,30,64,21.8,79,17.7,1020.4,0,0,6,146.7,0
2015-08-11 20:47:00,30,65,21.8,81,17.4,1020.7,0.3,1.0,6,146.7,0
2015-08-11 21:17:00,30,69,21.1,83,17.3,1021.0,0.7,1.4,2,146.7,0
2015-08-11 21:47:00,30,72,20.6,86,17.0,1021.0,0.7,1.0,2,146.7,0
2015-08-11 22:17:00,30,74,20.2,87,16.9,1021.3,1.7,2.4,2,146.7,0
2015-08-11 22:47:00,30,75,19.8,87,16.8,1021.1,1.0,2.4,4,146.7,0
2015-08-11 23:17:00,30,77,19.7,88,16.7,1021.3,1.4,2.0,2,146.7,0
2015-08-11 23:47:00,30,77,19.6,89,16.7,1021.2,1.4,2.0,4,146.7,0
