2015-08-19 00:20:00,30,69,19.9,81,16.6,1013.4,1.7,2.7,10,160.8,0
2015-08-19 00:50:00,30,70,19.9,81,16.6,1013.0,2.0,3.1,14,160.8,0
2015-08-19 01:20:00,30,70,19.9,83,16.6,1013.4,2.7,3.7,12,160.8,0
2015-08-19 01:50:00,30,70,19.9,84,16.5,1013.4,1.7,3.4,12,160.8,0
2015-08-19 02:20:00,30,71,19.9,84,16.5,1013.9,1.0,1.4,14,160.8,0
2015-08-19 02:50:00,30,71,19.9,83,16.5,1013.7,1.4,3.4,10,160.8,0
2015-08-19 03:20:00,30,71,19.8,83,16.5,1013.6,1.7,2.7,10,160.8,0
2015-08-19 03:50:00,30,71,19.9,86,15.9,1013.7,1.4,2.0,14,160.8,0
2015-08-19 04:20:00,30,71,19.8,84,15.7,1013.6,1.0,1.7,12,160.8,0
2015-08-19 04:50:00,30,71,19.8,84,15.5,1014.0,1.7,2.4,10,160.8,0
2015-08-19 05:20:00,30,71,19.8,86,15.3,1014.4,1.0,2.0,13,160.8,0
2015-08-19 05:50:00,30,70,19.9,80,16.7,1014.7,1.4,2.0,14,160.8,0
2015-08-19 06:20:00,30,70,19.9,82,15.8,1014.8,1.0,1.7,10,160.8,0
2015-08-19 06:50:00,30,69,20.1,75,17.9,1014.9,2.4,3.4,14,160.8,0
2015-08-19 07:20:00,30,69,20.6,70,19.3,1015.0,1.7,2.7,15,160.8,0
2015-08-19 07:50:00,30,69,21.0,69,19.5,1015.3,1.4,3.1,14,160.8,0
2015-08-19 08:20:00,30,69,21.5,68,19.8,1015.2,1.7,2.7,12,160.8,0
2015-08-19 08:50:00,30,67,22.0,61,21.1,1015.4,1.4,2.0,14,160.8,0
2015-08-19 09:20:00,30,66,22.4,62,20.9,1015.6,2.4,4.1,12,160.8,0
2015-08-19 09:50:00,30,64,22.8,59,21.8,1015.5,2.0,3.4,10,160.8,0
2015-08-19 10:20:00,30,63,23.0,55,22.2,1015.5,2.4,3.7,12,160.8,0
2015-08-19 10:50:00,30,62,23.9,51,22.8,1015.5,2.4,3.4,14,160.8,0
2015-08-19 11:20:00,30,61,24.7,51,23.6,1015.4,1.0,2.0,14,160.8,0
2015-08-19 11:50:00,30,58,25.0,52,22.3,1015.6,2.0,2.7,12,160.8,0
2015-08-19 12:20:00,30,57,24.8,52,22.2,1015.6,2.7,4.1,10,160.8,0
2015-08-19 12:50:00,30,57,24.8,51,22.8,1015.7,1.4,2.4,8,160.8,0
2015-08-19 13:20:00,30,55,24.8,51,22.4,1015.4,2.0,2.7,12,160.8,0
2015-08-19 13:50:00,30,54,24.7,54,21.8,1015.2,1.7,3.1,12,160.8,0
2015-08-19 14:20:00,30,53,23.4,58,21.5,1015.4,3.7,4.4,10,160.8,0
2015-08-19 14:50:00,30,64,22.6,72,20.5,1015.6,3.1,4.1,14,160.8,0
2015-08-19 15:20:00,30,58,22.3,58,21.0,1015.6,3.1,5.1,13,160.8,0
2015-08-19 15:50:00,30,59,22.1,59,21.5,1015.7,2.7,3.7,10,160.8,0
2015-08-19 16:20:00,30,62,21.7,61,21.0,1015.9,3.7,6.1,10,160.8,0
2015-08-19 16:50:00,30,64,21.1,63,20.6,1015.9,2.7,4.8,14,160.8,0
2015-08-19 17:20:00,30,65,20.7,64,20.3,1016.1,3.4,4.8,10,160.8,0
2015-08-19 17:50:00,30,66,20.7,66,19.7,1016.2,2.7,4.1,8,160.8,0
2015-08-19 18:20:00,30,64,21.0,66,19.5,1016.4,2.7,3.4,12,160.8,0
2015-08-19 18:50:00,30,64,21.4,67,19.0,1016.6,2.7,3.7,14,160.8,0
2015-08-19 19:20:00,30,64,21.5,71,18.7,1016.7,2.4,3.4,11,160.8,0
2015-08-19 19:50:00,30,64,21.6,74,18.3,1016.9,3.1,3.7,10,160.8,0
2015-08-19 20:20:00,30,67,21.8,75,17.9,1017.1,2.7,4.1,10,160.8,0
2015-08-19 20:50:00,30,68,21.9,74,17.7,1017.2,1.7,2.7,10,160.8,0
2015-08-19 21:20:00,30,68,21.9,77,17.5,1017.0,2.7,4.4,10,160.8,0
2015-08-19 21:50:00,30,68,21.9,79,17.2,1017.0,2.7,3.4,12,160.8,0
2015-08-19 22:20:00,30,67,22.0,80,17.2,1017.3,3.4,4.1,0,160.8,0
2015-08-19 22:50:00,30,67,22.0,81,17.2,1017.2,3.1,3.7,0,160.8,0
2015-08-19 23:20:00,30,66,22.0,83,17.1,1017.4,3.4,4.4,12,160.8,0
2015-08-19 23:50:00,30,66,22.0,84,17.0,1017.3,3.7,5.4,12,160.8,0
