2015-10-18 00:04:00,30,71,17.9,93,11.3,1017.0,992.8,1.0,1.7,2,275.1,0
2015-10-18 00:34:00,30,71,17.8,94,10.9,1017.2,993.0,0.7,1.4,2,275.1,0
2015-10-18 01:04:00,30,72,17.8,95,10.8,1017.1,992.9,1.4,2.4,5,275.1,0
2015-10-18 01:34:00,30,72,17.7,94,11.0,1016.9,992.7,1.0,1.7,4,275.1,0
2015-10-18 02:04:00,30,72,17.7,94,11.1,1017.0,992.8,1.4,2.4,4,275.1,0
2015-10-18 02:34:00,30,72,17.6,93,11.1,1017.1,992.9,1.7,2.7,4,275.1,0
2015-10-18 03:04:00,30,72,17.5,92,11.1,1017.3,993.1,1.4,2.4,11,275.1,0
2015-10-18 03:34:00,30,72,17.5,92,11.0,1017.3,993.1,0.7,1.7,2,275.1,0
2015-10-18 04:04:00,30,72,17.4,93,10.7,1017.1,992.9,1.4,1.7,2,275.1,0
2015-10-18 04:34:00,30,73,17.3,93,10.2,1017.5,993.3,1.0,1.7,2,275.1,0
2015-10-18 05:04:00,30,73,17.3,94,10.1,1017.7,993.5,1.4,2.4,2,275.1,0
2015-10-18 05:34:00,30,73,17.2,94,10.1,1017.7,993.5,1.4,2.4,2,275.1,0
2015-10-18 06:04:00,30,74,17.3,95,9.8,1017.8,993.6,0.7,1.4,2,275.1,0
2015-10-18 06:34:00,30,75,17.8,96,9.7,1018.4,994.2,1.0,1.7,2,275.1,0
2015-10-18 07:04:00,30,74,18.2,96,9.6,1018.6,994.4,1.4,2.0,2,275.1,0
2015-10-18 07:34:00,30,75,18.3,95,10.7,1018.9,994.7,1.0,1.7,2,275.1,0
2015-10-18 08:04:00,30,74,18.6,92,11.2,1019.1,994.9,0.0,0.7,6,275.1,0
2015-10-18 08:34:00,30,73,18.7,89,12.1,1019.2,995.0,1.0,1.7,3,275.1,0
2015-10-18 09:04:00,30,75,19.2,84,12.6,1019.4,995.2,1.4,2.4,2,275.1,0
2015-10-18 09:34:00,30,74,19.7,79,13.2,1019.3,995.1,1.0,1.7,2,275.1,0
2015-10-18 10:04:00,30,72,19.8,78,13.2,1019.3,995.1,1.0,3.1,2,275.1,0
2015-10-18 10:34:00,30,72,19.8,77,13.9,1019.3,995.1,1.0,1.7,2,275.1,0
2015-10-18 11:04:00,30,71,20.0,74,14.4,1019.3,995.1,0.7,1.7,3,275.1,0
2015-10-18 11:34:00,30,70,20.0,73,14.6,1019.2,995.0,1.4,2.4,2,275.1,0
2015-10-18 12:04:00,30,70,20.1,70,15.3,1019.2,995.0,1.7,2.4,4,275.1,0
2015-10-18 12:34:00,30,70,20.4,66,15.7,1019.1,994.9,1.4,2.0,4,275.1,0
2015-10-18 13:04:00,30,68,20.4,70,15.0,1019.0,994.8,1.0,2.0,4,275.1,0
2015-10-18 13:34:00,30,68,20.3,71,15.1,1018.7,994.5,3.1,4.4,2,275.1,0
2015-10-18 14:04:00,30,67,20.1,73,15.0,1018.9,994.7,1.4,2.0,0,275.1,0
2015-10-18 14:34:00,30,67,20.2,73,15.1,1019.0,994.8,2.4,4.1,2,275.1,0
2015-10-18 15:04:00,30,66,20.0,77,14.3,1018.7,994.5,1.0,2.4,2,275.1,0
2015-10-18 15:34:00,30,67,19.7,83,13.5,1018.7,994.5,1.0,2.0,2,275.1,0
2015-10-18 16:04:00,30,68,19.5,84,13.3,1019.1,994.9,1.0,1.4,2,275.1,0
2015-10-18 16:34:00,30,69,19.4,84,13.2,1019.2,995.0,0.0,0.7,3,275.1,0
2015-10-18 17:04:00,30,69,19.4,85,13.2,1019.4,995.2,0.0,0.0,4,275.1,0
2015-10-18 17:34:00,30,70,19.4,88,12.6,1019.6,995.4,0.0,0.3,5,275.1,0
2015-10-18 18:04:00,30,70,19.3,89,12.6,1019.6,995.4,0.0,0.3,4,275.1,0
2015-10-18 18:34:00,30,72,19.4,90,12.5,1019.8,995.6,0.0,0.3,8,275.1,0
2015-10-18 19:04:00,30,72,19.4,90,12.4,1019.7,995.5,0.0,0.7,15,275.1,0
2015-10-18 19:34:00,30,72,19.4,90,12.4,1020.0,995.8,0.3,1.0,2,275.1,0
2015-10-18 20:04:00,30,72,19.5,90,12.4,1020.2,996.0,1.0,2.4,2,275.1,0
2015-10-18 20:34:00,30,72,19.5,90,12.3,1020.3,996.1,0.7,1.4,10,275.1,0
2015-10-18 21:04:00,30,72,19.4,90,12.3,1020.5,996.3,1.0,1.7,2,275.1,0
2015-10-18 21:34:00,30,71,19.3,90,12.2,1020.6,996.4,0.3,1.4,4,275.1,0
2015-10-18 22:04:00,30,72,19.3,90,12.1,1020.8,996.6,1.4,2.0,4,275.1,0
2015-10-18 22:34:00,30,72,19.2,90,11.9,1020.5,996.3,1.4,2.0,14,275.1,0
2015-10-18 23:04:00,30,72,19.1,90,11.8,1020.7,996.5,0.7,1.4,8,275.1,0
2015-10-18 23:34:00,30,72,19.1,90,11.7,1020.6,996.4,0.3,1.4,2,275.1,0
