2015-10-10 00:02:00,30,68,19.3,92,10.1,1020.5,996.3,1.4,1.7,0,268.2,0
2015-10-10 00:32:00,30,68,19.2,93,10.2,1020.6,996.4,1.7,2.7,2,268.2,0
2015-10-10 01:02:00,30,69,19.0,94,10.5,1020.4,996.2,1.7,2.7,14,268.2,0
2015-10-10 01:32:00,30,70,18.9,94,10.1,1020.7,996.5,1.4,2.4,2,268.2,0
2015-10-10 02:02:00,30,70,18.7,94,10.0,1020.1,995.9,1.7,3.1,0,268.2,0
2015-10-10 02:32:00,30,70,18.6,93,10.1,1020.0,995.8,1.7,2.7,0,268.2,0
2015-10-10 03:02:00,30,70,18.5,92,10.0,1019.9,995.7,1.7,3.4,1,268.2,0
2015-10-10 03:32:00,30,70,18.3,92,10.2,1019.6,995.4,1.4,3.1,2,268.2,0
2015-10-10 04:02:00,30,70,18.3,92,10.3,1019.4,995.2,2.0,3.4,15,268.2,0
2015-10-10 04:32:00,30,70,18.2,92,10.8,1019.7,995.5,2.0,4.1,1,268.2,0
2015-10-10 05:02:00,30,70,18.0,90,11.1,1019.5,995.3,2.0,2.7,1,268.2,0
2015-10-10 05:32:00,30,70,17.9,91,10.9,1019.4,995.2,1.4,3.1,2,268.2,0
2015-10-10 06:02:00,30,70,17.8,92,10.9,1019.4,995.2,1.7,2.7,2,268.2,0
2015-10-10 06:32:00,30,70,17.8,92,11.1,1019.9,995.7,2.0,3.1,2,268.2,0
2015-10-10 07:02:00,30,71,17.9,88,12.3,1019.5,995.3,1.7,3.1,2,268.2,0
2015-10-10 07:32:00,30,72,18.2,85,12.7,1019.4,995.2,1.7,3.1,2,268.2,0
2015-10-10 08:02:00,30,73,18.6,85,13.3,1019.6,995.4,1.7,2.7,2,268.2,0
2015-10-10 08:32:00,30,71,19.7,79,15.5,1019.7,995.5,1.7,2.7,2,268.2,0
2015-10-10 09:02:00,30,69,20.6,73,17.2,1019.2,995.0,1.7,2.7,6,268.2,0
2015-10-10 09:32:00,30,66,21.3,69,17.9,1019.3,995.1,1.7,3.4,0,268.2,0
2015-10-10 10:02:00,30,65,21.5,72,16.8,1019.1,994.9,1.4,1.7,4,268.2,0
2015-10-10 10:32:00,30,64,21.7,71,17.7,1018.9,994.7,2.7,4.1,6,268.2,0
2015-10-10 11:02:00,30,63,22.0,76,16.6,1018.6,994.4,2.7,4.4,6,268.2,0
2015-10-10 11:32:00,30,63,21.9,74,16.6,1018.7,994.5,2.4,3.1,4,268.2,0
2015-10-10 12:02:00,30,62,22.1,70,17.2,1018.3,994.1,2.0,3.1,4,268.2,0
2015-10-10 12:32:00,30,62,22.4,69,17.3,1018.0,993.8,2.4,3.4,6,268.2,0
2015-10-10 13:02:00,30,61,22.4,70,16.7,1017.9,993.7,3.7,5.4,6,268.2,0
2015-10-10 13:32:00,30,61,22.3,72,16.2,1017.8,993.6,3.1,4.1,6,268.2,0
2015-10-10 14:02:00,30,61,22.1,74,16.0,1017.7,993.5,2.0,3.4,9,268.2,0
2015-10-10 14:32:00,30,62,21.8,73,15.9,1017.4,993.2,2.4,3.4,4,268.2,0
2015-10-10 15:02:00,30,62,21.6,75,15.7,1017.3,993.1,3.1,5.1,0,268.2,0
2015-10-10 15:32:00,30,62,21.3,75,15.3,1017.3,993.1,1.7,2.4,5,268.2,0
2015-10-10 16:02:00,30,62,21.1,78,15.0,1017.0,992.8,1.4,3.1,2,268.2,0
2015-10-10 16:32:00,30,63,20.9,81,14.6,1017.2,993.0,1.7,3.4,3,268.2,0
2015-10-10 17:02:00,30,63,20.6,83,14.1,1017.0,992.8,1.0,2.0,4,268.2,0
2015-10-10 17:32:00,30,63,20.4,85,13.5,1017.4,993.2,1.0,1.7,1,268.2,0
2015-10-10 18:02:00,30,63,20.2,88,12.9,1017.7,993.5,1.4,1.7,2,268.2,0
2015-10-10 18:32:00,30,64,20.1,89,12.8,1017.6,993.4,1.4,2.0,1,268.2,0
2015-10-10 19:02:00,30,65,19.9,89,12.6,1017.4,993.2,1.7,2.4,1,268.2,0
2015-10-10 19:32:00,30,65,19.8,90,12.3,1017.3,993.1,1.7,2.4,0,268.2,0
2015-10-10 20:02:00,30,65,19.6,91,12.2,1017.3,993.1,2.0,3.4,2,268.2,0
2015-10-10 20:32:00,30,66,19.5,91,12.1,1017.1,992.9,1.7,2.7,2,268.2,0
2015-10-10 21:02:00,30,66,19.5,92,11.8,1016.9,992.7,1.4,2.0,1,268.2,0
2015-10-10 21:32:00,30,67,19.3,92,11.6,1016.7,992.5,1.0,2.7,2,268.2,0
2015-10-10 22:02:00,30,67,19.2,81,12.5,1016.3,992.1,0.7,1.4,2,268.2,0
2015-10-10 22:32:00,30,68,19.1,80,12.4,1016.1,991.9,1.4,3.1,6,268.2,0
2015-10-10 23:02:00,30,68,19.0,82,12.8,1016.1,991.9,0.7,1.7,3,268.2,0
2015-10-10 23:32:00,30,69,18.9,83,13.5,1016.1,991.9,1.7,3.1,4,268.2,0
