2015-10-08 00:01:00,30,76,19.1,74,11.0,1014.8,990.6,1.0,2.0,4,268.2,0
2015-10-08 00:31:00,30,76,18.9,78,10.7,1015.2,991.0,0.3,1.0,8,268.2,0
2015-10-08 01:01:00,30,77,18.8,78,10.8,1015.4,991.2,0.3,1.4,14,268.2,0
2015-10-08 01:31:00,30,77,18.7,80,10.5,1015.7,991.5,0.7,2.0,6,268.2,0
2015-10-08 02:01:00,30,77,18.6,82,10.1,1015.4,991.2,0.3,0.7,0,268.2,0
2015-10-08 02:31:00,30,77,18.5,84,9.7,1015.7,991.5,0.3,1.4,0,268.2,0
2015-10-08 03:01:00,30,76,18.5,85,9.2,1015.8,991.6,0.0,0.3,4,268.2,0
2015-10-08 03:31:00,30,77,18.4,87,8.9,1016.1,991.9,0.0,0.3,4,268.2,0
2015-10-08 04:02:00,31,76,18.3,88,8.7,1016.4,992.2,0.0,0.3,4,268.2,0
2015-10-08 04:32:00,30,76,18.2,89,8.4,1016.8,992.6,0.0,0.0,6,268.2,0
2015-10-08 05:02:00,30,76,18.1,90,8.3,1016.8,992.6,0.0,0.3,6,268.2,0
2015-10-08 05:32:00,30,76,18.0,90,8.1,1017.4,993.2,0.0,0.0,6,268.2,0
2015-10-08 06:02:00,30,77,17.9,91,8.0,1017.5,993.3,0.7,1.0,2,268.2,0
2015-10-08 06:32:00,30,77,17.8,90,9.3,1018.0,993.8,0.7,1.4,4,268.2,0
2015-10-08 07:02:00,30,77,18.0,80,11.4,1018.3,994.1,0.0,0.7,2,268.2,0
2015-10-08 07:32:00,30,77,18.3,72,12.9,1018.6,994.4,0.0,1.0,6,268.2,0
2015-10-08 08:02:00,30,74,19.1,64,15.4,1018.8,994.6,0.0,0.3,4,268.2,0
2015-10-08 08:32:00,30,74,20.2,56,17.0,1018.9,994.7,0.0,0.7,4,268.2,0
2015-10-08 09:02:00,30,74,21.4,54,18.6,1019.1,994.9,0.3,0.7,6,268.2,0
2015-10-08 09:32:00,30,70,22.4,53,19.5,1019.3,995.1,1.0,1.7,4,268.2,0
2015-10-08 10:02:00,30,69,23.3,52,19.6,1019.2,995.0,0.7,2.4,6,268.2,0
2015-10-08 10:32:00,30,65,24.1,50,20.0,1019.4,995.2,0.7,1.7,6,268.2,0
2015-10-08 11:02:00,30,65,24.8,48,20.8,1019.3,995.1,0.3,1.4,14,268.2,0
2015-10-08 11:32:00,30,63,25.2,42,21.6,1019.3,995.1,0.7,2.4,10,268.2,0
2015-10-08 12:02:00,30,61,25.4,42,21.0,1019.3,995.1,0.7,1.4,2,268.2,0
2015-10-08 12:32:00,30,60,25.5,40,21.3,1019.6,995.4,0.7,1.4,2,268.2,0
2015-10-08 13:02:00,30,60,25.5,40,21.4,1019.6,995.4,0.3,1.4,6,268.2,0
2015-10-08 13:32:00,30,58,25.4,47,19.1,1019.6,995.4,0.7,1.0,4,268.2,0
2015-10-08 14:02:00,30,56,25.0,48,19.5,1019.8,995.6,0.3,1.0,2,268.2,0
2015-10-08 14:32:00,30,55,24.7,44,20.3,1019.6,995.4,0.7,1.4,8,268.2,0
2015-10-08 15:02:00,30,55,24.2,41,20.8,1019.8,995.6,0.3,1.0,4,268.2,0
2015-10-08 15:32:00,30,55,23.9,43,20.0,1019.8,995.6,0.7,1.4,4,268.2,0
2015-10-08 16:02:00,30,55,23.4,53,16.5,1019.8,995.6,0.3,1.0,6,268.2,0
2015-10-08 16:32:00,30,56,23.1,60,15.4,1020.2,996.0,0.0,0.3,6,268.2,0
2015-10-08 17:02:00,30,58,22.6,62,15.1,1020.1,995.9,0.0,0.0,4,268.2,0
2015-10-08 17:32:00,30,58,22.3,66,14.4,1020.5,996.3,0.0,0.0,4,268.2,0
2015-10-08 18:02:00,30,59,21.9,70,13.5,1020.7,996.5,0.3,0.7,2,268.2,0
2015-10-08 18:32:00,30,59,21.6,71,12.9,1020.8,996.6,0.0,0.7,4,268.2,0
2015-10-08 19:02:00,30,60,21.5,72,12.7,1021.0,996.8,0.3,0.7,2,268.2,0
2015-10-08 19:32:00,30,60,21.3,71,12.5,1021.0,996.8,0.3,1.0,2,268.2,0
2015-10-08 20:02:00,30,60,21.0,71,12.1,1021.1,996.9,0.0,0.7,2,268.2,0
2015-10-08 20:32:00,30,62,20.9,75,11.6,1021.6,997.4,0.0,0.3,4,268.2,0
2015-10-08 21:02:00,30,62,20.6,80,10.6,1021.5,997.3,0.0,0.3,2,268.2,0
2015-10-08 21:32:00,30,62,20.6,80,10.8,1021.3,997.1,0.0,0.0,6,268.2,0
2015-10-08 22:02:00,30,63,20.3,83,9.9,1021.5,997.3,0.0,0.7,4,268.2,0
2015-10-08 22:32:00,30,63,20.3,90,9.9,1021.4,997.2,1.0,1.4,2,268.2,0
2015-10-08 23:02:00,30,64,20.2,90,9.9,1021.3,997.1,0.7,1.4,2,268.2,0
2015-10-08 23:32:00,30,64,20.1,88,9.7,1021.4,997.2,0.7,1.0,2,268.2,0
