2015-10-01 00:00:00,30,63,20.6,80,13.7,1031.1,1006.9,1.4,2.0,4,263.4,0
2015-10-01 00:30:00,30,64,20.5,76,14.1,1030.9,1006.7,1.7,3.1,4,263.4,0
2015-10-01 01:00:00,30,64,20.4,76,13.5,1030.7,1006.5,1.4,2.7,2,263.4,0
2015-10-01 01:30:00,30,65,20.3,76,13.4,1030.9,1006.7,1.4,2.4,3,263.4,0
2015-10-01 02:00:00,30,65,20.3,77,13.4,1030.4,1006.2,0.7,1.7,2,263.4,0
2015-10-01 02:30:00,30,65,20.2,78,12.9,1030.2,1006.0,0.7,1.4,4,263.4,0
2015-10-01 03:00:00,30,65,20.1,80,12.7,1030.1,1005.9,1.0,2.0,0,263.4,0
2015-10-01 03:30:00,30,65,20.0,79,12.5,1030.3,1006.1,1.0,2.4,2,263.4,0
2015-10-01 04:00:00,30,66,19.9,83,11.5,1030.1,1005.9,0.7,1.4,0,263.4,0
2015-10-01 04:30:00,30,66,19.8,89,10.7,1030.1,1005.9,1.4,2.0,14,263.4,0
2015-10-01 05:00:00,30,66,19.6,91,10.6,1030.3,1006.1,1.7,2.4,2,263.4,0
2015-10-01 05:30:00,30,66,19.5,92,10.6,1030.7,1006.5,2.0,3.1,2,263.4,0
2015-10-01 06:00:00,30,66,19.4,92,10.5,1030.4,1006.2,1.7,2.4,2,263.4,0
2015-10-01 06:30:00,30,67,19.4,89,11.2,1030.4,1006.2,1.7,2.7,0,263.4,0
2015-10-01 07:00:00,30,67,19.6,84,12.2,1030.6,1006.4,2.4,3.4,2,263.4,0
2015-10-01 07:30:00,30,68,20.0,82,12.9,1030.7,1006.5,2.0,3.4,0,263.4,0
2015-10-01 08:00:00,30,69,20.4,77,14.7,1030.7,1006.5,1.4,2.7,2,263.4,0
2015-10-01 08:30:00,30,70,20.7,67,16.9,1030.5,1006.3,2.7,4.8,6,263.4,0
2015-10-01 09:00:00,30,69,21.5,57,17.6,1030.8,1006.6,3.1,4.8,4,263.4,0
2015-10-01 09:30:00,30,65,22.0,57,17.5,1031.0,1006.8,2.4,3.7,6,263.4,0
2015-10-01 10:00:00,30,63,22.1,56,17.4,1031.0,1006.8,3.7,6.5,6,263.4,0
2015-10-01 10:30:00,30,62,22.1,57,17.7,1031.1,1006.9,3.1,3.7,2,263.4,0
2015-10-01 11:00:00,30,61,22.0,60,16.7,1030.9,1006.7,2.0,3.7,2,263.4,0
2015-10-01 11:30:00,30,60,22.0,58,16.9,1030.7,1006.5,3.7,6.1,6,263.4,0
2015-10-01 12:00:00,30,60,22.0,57,18.0,1030.6,1006.4,4.1,5.8,2,263.4,0
2015-10-01 12:30:00,30,59,22.2,57,17.2,1030.3,1006.1,3.4,5.8,3,263.4,0
2015-10-01 13:00:00,30,58,22.3,55,17.9,1029.6,1005.4,2.4,4.1,4,263.4,0
2015-10-01 13:30:00,30,58,22.4,55,18.3,1029.5,1005.3,3.1,5.4,4,263.4,0
2015-10-01 14:00:00,30,58,22.6,57,17.9,1029.3,1005.1,3.4,4.4,5,263.4,0
2015-10-01 14:30:00,30,58,22.9,59,17.9,1029.1,1004.9,2.7,4.1,4,263.4,0
2015-10-01 15:00:00,30,57,22.9,57,18.0,1028.8,1004.6,2.7,4.4,4,263.4,0
2015-10-01 15:30:00,30,56,22.7,54,17.9,1028.7,1004.5,6.8,9.2,6,263.4,0
2015-10-01 16:00:00,30,55,22.5,57,17.2,1028.4,1004.2,2.4,4.4,0,263.4,0
2015-10-01 16:30:00,30,55,22.3,63,16.2,1028.3,1004.1,2.0,5.1,2,263.4,0
2015-10-01 17:00:00,30,54,22.1,70,15.2,1028.2,1004.0,2.0,3.7,2,263.4,0
2015-10-01 17:30:00,30,55,21.8,74,14.7,1028.0,1003.8,1.0,1.7,4,263.4,0
2015-10-01 18:00:00,30,55,21.5,79,13.8,1028.1,1003.9,1.0,2.0,2,263.4,0
2015-10-01 18:30:00,30,57,21.2,82,13.5,1028.1,1003.9,1.0,2.0,0,263.4,0
2015-10-01 19:00:00,30,58,21.1,84,12.9,1028.2,1004.0,1.0,1.7,2,263.4,0
2015-10-01 19:30:00,30,60,20.9,86,12.9,1028.3,1004.1,0.7,1.4,13,263.4,0
2015-10-01 20:00:00,30,60,20.9,88,12.7,1028.2,1004.0,1.0,2.0,2,263.4,0
2015-10-01 20:30:00,30,60,20.7,88,12.6,1028.5,1004.3,1.0,2.0,2,263.4,0
2015-10-01 21:00:00,30,60,20.6,89,12.3,1028.2,1004.0,1.0,1.7,2,263.4,0
2015-10-01 21:30:00,30,60,20.5,90,12.6,1028.1,1003.9,0.7,1.0,2,263.4,0
2015-10-01 22:00:00,30,61,20.4,89,12.7,1027.9,1003.7,0.7,1.7,2,263.4,0
2015-10-01 22:30:00,30,61,20.3,87,12.9,1027.8,1003.6,1.0,2.0,4,263.4,0
2015-10-01 23:00:00,30,61,20.2,81,12.9,1027.6,1003.4,1.0,2.4,2,263.4,0
2015-10-01 23:30:00,30,61,20.1,81,12.9,1027.4,1003.2,1.0,1.4,2,263.4,0
