2015-09-01 08:53:00,2015-08-01 09:00:00,77.5947580645,33,2015-08-17 12:50:00,99,2015-08-14 01:19:00,18.4082885305,10.8,2015-08-17 04:50:00,20.5,2015-08-23 04:21:00,15.1741935484,16.3,2015-08-31 09:23:00,27.1,2015-08-10 14:17:00,22.1366666667,66.4177867384,44,2015-08-04 09:15:00,89,2015-08-20 09:50:00,22.4903897849,18.5,2015-08-12 07:17:00,23.6,2015-08-22 05:21:00,21.1387096774,20.6,2015-08-31 09:23:00,28.0,2015-08-22 13:21:00,24.2833333333,1012.49254032,993.8,2015-08-24 14:21:00,1023.0,2015-08-08 11:16:00,988.292540323,969.6,2015-08-24 14:21:00,998.8,2015-08-08 11:16:00,2.08181003584,12.2,2015-08-26 14:22:00,11.0163413112,47.4,11
2015-10-01 08:30:00,2015-09-01 09:00:00,77.3747635934,32,2015-09-06 14:54:00,99,2015-09-16 15:26:00,14.7639686761,7.1,2015-09-06 02:23:00,16.4,2015-09-12 07:55:00,10.8866666667,14.9,2015-09-22 14:58:00,23.3,2015-09-01 12:23:00,19.7966666667,69.2117169031,51,2015-09-30 15:00:00,83,2015-09-23 07:28:00,20.1463253546,15.9,2015-09-23 06:28:00,21.0,2015-09-12 08:55:00,18.3733333333,17.3,2015-09-16 09:56:00,26.2,2015-09-11 12:55:00,22.32,1015.62953457,982.6,2015-09-16 16:56:00,1037.0,2015-09-28 10:29:00,991.429534574,958.4,2015-09-16 16:56:00,1012.8,2015-09-28 10:29:00,1.53243055556,11.2,2015-09-14 16:26:00,5.1230269495,69.3,14
2015-11-01 08:38:00,2015-10-01 09:00:00,83.123655914,40,2015-10-08 13:02:00,99,2015-10-03 03:00:00,12.4212365591,4.2,2015-10-25 06:36:00,15.2,2015-10-05 23:31:00,9.87419354839,11.7,2015-10-16 12:04:00,21.6,2015-10-08 11:32:00,16.1806451613,68.1411290323,51,2015-10-25 14:36:00,81,2015-10-20 07:35:00,19.6097446237,15.9,2015-10-14 07:03:00,19.7,2015-10-06 07:01:00,17.8516129032,18.5,2015-10-17 09:34:00,25.6,2015-10-04 13:31:00,21.7225806452,1016.14771506,994.3,2015-10-06 16:01:00,1031.1,2015-10-01 10:30:00,991.947715054,970.1,2015-10-06 16:01:00,1006.9,2015-10-01 10:30:00,1.56733870968,9.2,2015-10-01 15:30:00,8.17787480597,26.1,13
2015-12-01 08:45:01,2015-11-01 09:00:00,81.6228280142,50,2015-11-20 14:43:00,99,2015-11-01 09:09:00,10.8028486998,-2.1,2015-11-22 05:43:00,14.4,2015-11-10 01:40:01,8.84,7.2,2015-11-21 11:43:00,17.9,2015-11-15 12:11:01,13.52,71.6451388889,43,2015-11-15 14:41:01,82,2015-11-06 07:09:01,18.9934027778,13.9,2015-11-22 06:43:00,19.1,2015-11-07 06:39:01,17.3433333333,18.6,2015-11-21 20:43:00,28.8,2015-11-15 14:41:01,21.31,1013.24645833,996.8,2015-11-17 16:12:01,1028.5,2015-11-01 10:09:00,989.046458333,972.6,2015-11-17 16:12:01,1004.3,2015-11-01 10:09:00,2.57291666667,12.6,2015-11-17 23:13:01,11.8865726851,58.2,19
2015-12-12 08:48:01,2015-12-01 09:00:00,79.4053030303,64,2015-12-04 13:17:01,95,2015-12-01 09:15:01,10.6418560606,4.8,2015-12-09 05:17:01,12.0,2015-12-06 05:47:01,9.29090909091,9.9,2015-12-11 10:47:01,15.0,2015-12-01 13:15:01,12.7090909091,71.6628787879,54,2015-12-09 14:47:00,80,2015-12-07 07:17:01,18.9795454546,15.9,2015-12-12 06:47:01,18.2,2015-12-07 06:47:01,17.2272727273,19.1,2015-12-11 10:17:01,26.7,2015-12-09 14:17:00,21.5,1021.25018939,1010.1,2015-12-03 23:45:01,1033.8,2015-12-09 10:47:00,997.050189394,985.9,2015-12-03 23:45:01,1009.6,2015-12-09 10:47:00,3.76515151515,13.3,2015-12-05 22:47:00,11.6041810018,10.8,6
