2015-10-19 00:34:00,73,18.9,90,11.7,1020.5,996.3,-0.1,0.65,2.0,3.62052676646,0.0
2015-10-19 01:34:00,74,18.8,91,11.7,1020.7,996.5,0.2,0.85,2.0,6.0,0.0
2015-10-19 02:34:00,74,18.6,91,11.7,1020.7,996.5,0.1,1.0,2.4,4.0,0.0
2015-10-19 03:34:00,74,18.5,91,11.7,1020.7,996.5,0.2,0.85,1.7,2.0,0.0
2015-10-19 04:34:00,75,18.4,91,11.7,1021.3,997.1,0.6,0.65,1.7,2.66975198016,0.0
2015-10-19 05:34:00,75,18.2,91,11.6,1021.5,997.3,0.8,0.0,1.0,8.0,0.0
2015-10-19 06:34:00,75,18.6,92,11.6,1021.7,997.5,1.0,0.3,1.0,7.0,0.0
2015-10-19 07:34:00,73,19.0,92,12.0,1022.5,998.3,1.2,0.35,1.7,2.0,0.0
2015-10-19 08:34:00,72,19.0,89,12.6,1022.6,998.4,1.1,0.5,2.7,2.0,0.0
2015-10-19 09:34:00,72,19.1,85,13.3,1022.6,998.4,0.9,1.4,2.4,1.5,0.0
2015-10-19 10:34:00,71,19.2,83,13.5,1023.1,998.9,0.6,2.55,4.1,2.0,0.0
2015-10-19 11:34:00,71,19.2,77,14.8,1022.9,998.7,0.3,1.9,3.4,1.27648371803,0.0
2015-10-19 12:34:00,71,19.2,74,14.9,1022.9,998.7,0.3,1.2,2.7,1.17551921291,0.0
2015-10-19 13:34:00,71,19.2,72,15.2,1022.5,998.3,-0.6,1.4,2.4,2.0,0.0
2015-10-19 14:34:00,71,19.2,72,14.7,1022.6,998.4,-0.3,1.7,3.7,2.0,0.0
2015-10-19 15:34:00,68,19.0,74,14.2,1022.6,998.4,-0.3,1.35,3.1,3.27241907443,0.0
2015-10-19 16:34:00,69,19.0,77,13.2,1022.8,998.6,0.3,1.35,3.1,2.0,0.0
2015-10-19 17:34:00,71,19.2,78,12.6,1023.0,998.8,0.4,0.5,1.7,4.0,0.0
2015-10-19 18:34:00,72,19.3,79,12.6,1023.5,999.3,0.9,1.0,2.0,16.0,0.0
2015-10-19 19:34:00,76,19.6,79,12.1,1023.8,999.6,1.0,0.15,1.4,2.0,0.0
2015-10-19 20:34:00,75,19.5,80,11.4,1023.8,999.6,0.8,0.0,0.7,8.0,0.0
2015-10-19 21:34:00,75,19.4,84,10.0,1023.9,999.7,0.4,0.5,1.4,1.0,0.0
2015-10-19 22:34:00,76,19.1,89,9.3,1023.9,999.7,0.1,0.85,1.7,2.0,0.0
2015-10-19 23:34:00,76,18.9,91,9.6,1023.8,999.6,0.0,0.5,1.7,2.0,0.0
