2015-10-03 00:30:00,62,20.1,95,10.2,1016.6,992.4,-1.4,1.2,2.0,16.0,0.0
2015-10-03 01:30:00,64,19.9,97,9.6,1016.0,991.8,-1.8,1.4,3.1,0.5,0.0
2015-10-03 02:30:00,64,19.6,98,9.2,1015.5,991.3,-1.8,1.4,2.4,1.0,0.0
2015-10-03 03:30:00,64,19.2,99,9.1,1014.7,990.5,-1.9,1.55,2.4,1.10202146142,0.0
2015-10-03 04:30:00,65,18.9,99,8.9,1014.3,990.1,-1.7,1.2,1.7,2.0,0.0
2015-10-03 05:30:00,65,18.6,99,8.7,1013.8,989.6,-1.7,1.55,3.1,1.10202146142,0.0
2015-10-03 06:30:00,66,18.4,99,8.7,1013.5,989.3,-1.2,1.55,3.4,2.0,0.0
2015-10-03 07:30:00,66,18.3,99,10.0,1013.7,989.5,-0.6,0.7,3.1,2.0,0.0
2015-10-03 08:30:00,68,19.1,97,12.9,1013.6,989.4,-0.2,1.0,2.4,4.0,0.0
2015-10-03 09:30:00,67,20.7,79,17.1,1013.3,989.1,-0.2,1.0,1.7,2.0,0.0
2015-10-03 10:30:00,67,21.9,71,18.7,1012.6,988.4,-1.1,0.65,1.7,9.55881533352,0.0
2015-10-03 11:30:00,63,23.4,72,18.5,1012.4,988.2,-1.2,1.55,2.4,10.8979785386,0.0
2015-10-03 12:30:00,61,24.0,68,18.8,1011.7,987.5,-1.6,0.85,1.4,7.18580827627,0.0
2015-10-03 13:30:00,58,24.7,80,16.2,1011.4,987.2,-1.2,2.2,3.4,9.09584436832,0.0
2015-10-03 14:30:00,56,24.6,70,17.7,1011.1,986.9,-1.3,1.35,3.1,8.0,0.0
2015-10-03 15:30:00,57,23.8,75,16.8,1011.0,986.8,-0.7,1.85,3.4,10.0,0.0
2015-10-03 16:30:00,58,22.9,77,15.7,1011.4,987.2,0.0,2.4,3.1,11.0,0.0
2015-10-03 17:30:00,58,22.2,73,15.2,1011.2,987.0,0.1,1.9,3.4,11.3447305406,0.0
2015-10-03 18:30:00,59,21.5,81,13.8,1011.3,987.1,0.3,0.5,1.7,14.0,0.0
2015-10-03 19:30:00,65,21.3,85,12.2,1011.3,987.1,-0.1,0.0,0.0,8.0,0.0
2015-10-03 20:30:00,65,20.9,90,11.8,1011.6,987.4,0.4,0.0,0.0,8.0,0.0
2015-10-03 21:30:00,65,20.7,91,10.8,1011.8,987.6,0.5,0.0,0.0,8.0,0.0
2015-10-03 22:30:00,66,20.5,92,11.0,1011.6,987.4,0.3,0.5,1.4,1.03104846727,0.0
2015-10-03 23:30:00,66,20.2,91,11.2,1011.7,987.5,0.1,0.0,0.7,8.0,0.0
