2015-10-29 00:38:00,72,19.4,93,10.9,1008.8,984.6,0.3,2.0,2.7,12.0,0.0
2015-10-29 01:38:00,72,19.2,90,11.4,1008.9,984.7,0.0,2.75,4.1,10.5644532018,0.3
2015-10-29 02:38:00,74,18.8,91,11.7,1009.4,985.2,0.6,2.2,3.1,12.230863507,0.0
2015-10-29 03:38:00,73,18.7,91,11.4,1009.5,985.3,0.7,2.35,4.1,12.4245819885,0.0
2015-10-29 04:38:00,73,18.5,91,11.4,1009.6,985.4,0.7,2.75,4.1,10.0,0.0
2015-10-29 05:38:00,73,18.3,90,11.4,1010.2,986.0,0.8,2.9,4.1,11.2079250029,0.0
2015-10-29 06:38:00,73,18.1,90,11.8,1010.5,986.3,1.0,3.4,4.8,9.5,0.0
2015-10-29 07:38:00,73,19.0,90,12.1,1011.1,986.9,1.5,3.55,5.1,11.892466257,0.0
2015-10-29 08:38:00,72,19.9,86,13.1,1011.5,987.3,1.3,2.75,4.1,8.86587864474,0.0
2015-10-29 09:38:00,70,20.6,89,13.0,1011.7,987.5,1.2,3.55,6.5,10.3788106595,0.0
2015-10-29 10:38:00,70,20.9,86,13.4,1012.1,987.9,1.0,4.9,6.8,14.0,0.0
2015-10-29 11:38:00,69,20.9,81,14.5,1012.1,987.9,0.6,6.1,7.5,10.0,0.0
2015-10-29 12:38:00,64,21.3,84,13.7,1011.8,987.6,0.1,4.95,6.8,10.4846509076,0.0
2015-10-29 13:38:00,65,20.4,85,14.0,1012.4,988.2,0.3,5.25,6.1,11.8632870133,0.0
2015-10-29 14:38:00,67,19.8,86,13.7,1012.4,988.2,0.3,4.9,6.8,10.0,0.0
2015-10-29 15:38:00,67,19.3,90,13.3,1012.5,988.3,0.7,4.75,6.8,10.0,0.0
2015-10-29 16:38:00,68,19.0,90,13.3,1013.4,989.2,1.0,4.25,5.1,8.96277490446,0.0
2015-10-29 17:38:00,71,19.4,90,13.2,1013.4,989.2,1.0,4.9,6.5,9.55167924924,0.0
2015-10-29 18:38:00,71,19.5,92,13.0,1014.1,989.9,1.6,4.6,6.1,10.0,0.0
2015-10-29 19:38:00,71,19.4,92,13.0,1014.7,990.5,1.3,3.55,5.1,10.0,0.0
2015-10-29 20:38:00,71,19.4,89,13.0,1014.8,990.6,1.4,4.6,6.5,10.0,0.0
2015-10-29 21:38:00,71,19.4,90,13.0,1015.0,990.8,0.9,4.4,5.8,10.0,0.0
2015-10-29 22:38:00,70,19.3,88,13.4,1014.7,990.5,0.0,4.8,6.8,10.0,0.0
2015-10-29 23:38:00,71,19.1,92,13.3,1014.8,990.6,0.0,4.1,6.5,10.0,0.0
