2015-08-05 00:45:00,60,23.0,76,15.9,1013.1,988.9,-0.4,2.9,5.8,14.567737033,0.0
2015-08-05 01:45:00,60,22.9,78,16.0,1013.6,989.4,0.0,3.25,5.4,12.3243831663,0.0
2015-08-05 02:46:00,61,22.8,79,16.2,1013.8,989.6,0.5,3.4,4.8,10.0,0.0
2015-08-05 03:46:00,61,22.6,75,16.2,1013.5,989.3,0.4,2.9,4.1,10.0,0.0
2015-08-05 04:46:00,61,22.4,85,15.9,1014.0,989.8,0.4,2.2,4.1,11.2390197087,0.0
2015-08-05 05:46:00,61,22.3,83,16.1,1013.7,989.5,-0.1,2.55,4.1,12.5409536982,0.0
2015-08-05 06:46:00,61,22.2,79,16.9,1013.9,989.7,0.4,2.75,4.1,11.5644532018,0.0
2015-08-05 07:46:00,62,22.5,71,18.1,1014.0,989.8,0.0,2.2,3.1,10.0,0.0
2015-08-05 08:46:00,62,23.0,64,19.0,1013.6,989.4,-0.1,1.7,2.7,10.0,0.0
2015-08-05 09:46:00,60,24.4,63,20.2,1013.2,989.0,-0.7,2.9,4.4,10.4650693508,0.0
2015-08-05 10:46:00,57,25.2,60,20.1,1013.0,988.8,-1.0,3.05,4.4,8.87904999847,0.0
2015-08-05 11:46:00,56,26.0,64,20.4,1012.1,987.9,-1.5,3.55,4.4,7.33918278607,0.0
2015-08-05 12:46:00,55,25.6,68,18.9,1011.7,987.5,-1.5,3.7,4.8,6.5,0.0
2015-08-05 13:46:00,55,24.2,63,19.6,1011.0,986.8,-2.0,1.7,2.7,7.0,0.0
2015-08-05 14:46:00,58,24.2,63,19.5,1010.6,986.4,-1.5,1.7,2.4,7.5,0.0
2015-08-05 15:46:00,57,24.3,66,20.3,1010.4,986.2,-1.3,1.9,3.4,6.0,0.0
2015-08-05 16:46:00,60,24.2,76,19.5,1009.0,984.8,-2.0,2.2,3.4,6.1162269378,0.0
2015-08-05 17:46:00,61,24.1,77,19.8,1009.4,985.2,-1.2,2.05,3.4,8.0,0.0
2015-08-05 18:46:00,62,23.9,83,19.5,1009.9,985.7,-0.5,1.2,1.7,8.58439012317,0.0
2015-08-05 19:46:00,62,23.5,90,19.0,1009.8,985.6,0.8,1.05,1.7,9.34938637355,0.0
2015-08-05 20:46:00,63,23.3,81,17.4,1009.6,985.4,0.2,0.15,1.0,12.0,0.0
2015-08-05 21:46:00,63,23.1,82,16.1,1009.7,985.5,-0.2,0.0,0.0,8.0,0.0
2015-08-05 22:46:00,64,23.0,83,15.7,1009.5,985.3,-0.3,0.0,0.0,8.0,0.0
2015-08-05 23:46:00,64,22.8,84,16.0,1009.2,985.0,-0.4,0.7,1.4,3.0,0.0
