2015-08-13 00:47:00,67,21.1,92,16.7,1018.3,994.1,-2.1,2.05,3.7,2.0,0.0
2015-08-13 01:47:00,69,21.1,93,16.6,1017.4,993.2,-2.3,2.2,3.4,2.0,0.0
2015-08-13 02:48:00,69,21.1,92,17.0,1017.6,993.4,-1.4,1.7,3.4,3.5,0.0
2015-08-13 03:48:00,69,21.1,91,17.5,1017.1,992.9,-1.2,2.0,3.7,2.5,0.0
2015-08-13 04:48:00,70,21.1,91,17.8,1016.9,992.7,-0.5,1.0,1.7,5.0,0.0
2015-08-13 05:48:00,70,21.1,92,18.2,1016.3,992.1,-1.3,1.85,3.4,3.36217504139,0.0
2015-08-13 06:49:00,71,21.3,89,18.8,1015.7,991.5,-1.4,2.2,3.4,2.90415563168,0.0
2015-08-13 07:49:00,72,21.5,88,19.0,1015.0,990.8,-1.9,2.85,6.1,1.41089036979,0.0
2015-08-13 08:49:00,73,21.9,80,20.7,1014.3,990.1,-2.0,3.55,6.1,1.4015463069,0.0
2015-08-13 09:49:00,72,22.2,85,19.7,1013.2,989.0,-2.5,3.4,5.8,6.0,0.0
2015-08-13 10:49:00,72,22.3,86,19.6,1013.3,989.1,-1.7,3.4,6.1,5.26112705168,0.0
2015-08-13 11:49:00,72,22.7,81,20.4,1013.6,989.4,-0.7,2.9,7.1,4.79207499711,0.0
2015-08-13 12:49:00,72,22.5,84,20.2,1013.4,989.2,0.2,0.35,1.4,2.0,0.0
2015-08-13 13:49:00,72,22.5,87,19.8,1013.4,989.2,0.1,0.85,2.7,14.0,0.3
2015-08-13 14:49:00,74,22.8,90,20.1,1010.8,986.6,-2.8,2.7,5.4,2.0,1.2
2015-08-13 15:49:00,74,23.2,75,21.8,1009.6,985.4,-3.8,3.75,9.2,3.09839770778,0.0
2015-08-13 16:49:00,73,23.3,72,22.3,1008.9,984.7,-4.5,3.05,5.8,6.53469315985,0.0
2015-08-13 17:49:00,73,23.3,76,21.6,1008.3,984.1,-2.5,2.2,3.7,2.0,0.0
2015-08-13 18:49:00,73,23.0,91,19.9,1007.2,983.0,-2.4,3.6,7.8,4.65061362645,1.5
2015-08-13 19:49:00,74,22.8,95,19.2,1006.3,982.1,-2.6,2.9,5.4,4.43477364586,3.0
2015-08-13 20:49:00,75,22.7,97,18.9,1006.8,982.6,-1.5,1.0,2.7,2.28135601472,0.3
2015-08-13 21:49:00,76,22.7,97,19.2,1007.2,983.0,0.0,0.5,1.4,4.0,0.0
2015-08-13 22:49:00,76,22.6,96,19.0,1006.3,982.1,0.0,0.0,0.3,8.0,0.0
2015-08-13 23:49:00,78,22.5,98,18.7,1006.1,981.9,-0.7,0.35,1.4,2.0,0.0
