2015-08-10 00:47:00,67,23.7,87,18.3,1016.3,992.1,-0.1,1.0,2.4,12.2813560147,0.0
2015-08-10 01:47:00,68,23.6,88,17.7,1015.9,991.7,-0.5,1.05,1.7,11.1806689412,0.0
2015-08-10 02:47:00,69,23.3,91,16.8,1015.8,991.6,-0.4,1.2,1.7,7.57945234631,0.0
2015-08-10 03:47:00,69,23.3,92,16.8,1016.3,992.1,0.0,0.35,1.4,8.0,0.0
2015-08-10 04:47:00,68,23.3,90,16.9,1015.9,991.7,0.0,0.0,0.0,8.0,0.0
2015-08-10 05:47:00,67,23.4,90,17.5,1015.6,991.4,-0.2,1.4,2.4,10.5,0.0
2015-08-10 06:47:00,67,23.9,83,19.8,1015.7,991.5,-0.6,1.85,2.7,12.0,0.0
2015-08-10 07:47:00,66,24.5,73,21.6,1015.4,991.2,-0.5,2.2,3.4,13.3455077428,0.0
2015-08-10 08:47:00,66,25.2,69,22.3,1015.2,991.0,-0.4,2.4,3.4,11.5,0.0
2015-08-10 09:47:00,64,25.6,71,22.4,1015.3,991.1,-0.4,2.05,3.4,10.8202138742,0.0
2015-08-10 10:47:00,63,26.0,62,25.1,1015.0,990.8,-0.4,1.85,3.1,12.0,0.0
2015-08-10 11:47:00,63,26.4,67,24.6,1014.7,990.5,-0.5,1.7,2.7,9.18580827627,0.0
2015-08-10 12:47:00,60,26.9,58,25.9,1014.4,990.2,-0.9,1.05,2.7,9.34938637355,0.0
2015-08-10 13:47:00,59,27.1,58,26.2,1014.0,989.8,-1.0,2.75,5.1,13.1341213553,0.0
2015-08-10 14:47:00,59,27.5,56,26.9,1013.2,989.0,-1.5,2.35,5.1,13.156896974,0.0
2015-08-10 15:47:00,59,27.2,65,25.1,1013.0,988.8,-1.4,3.05,5.4,13.3606914337,0.0
2015-08-10 16:47:00,61,26.7,69,24.3,1013.2,989.0,-0.8,3.25,6.1,12.7252045019,0.0
2015-08-10 17:47:00,63,25.5,71,22.2,1013.2,989.0,0.0,2.75,5.1,12.322364205,0.0
2015-08-10 18:47:00,67,24.0,72,21.5,1013.4,989.2,0.4,2.55,4.4,12.0,0.0
2015-08-10 19:47:00,68,24.0,78,20.8,1014.3,990.1,1.1,3.05,5.1,12.8790499985,0.0
2015-08-10 20:47:00,70,24.0,82,20.3,1014.7,990.5,1.5,3.05,5.1,12.0,0.0
2015-08-10 21:47:00,70,24.1,86,19.8,1014.9,990.7,1.5,2.35,3.4,11.2474162942,0.0
2015-08-10 22:47:00,69,24.4,88,19.0,1015.0,990.8,0.7,0.7,1.7,7.0,0.0
2015-08-10 23:47:00,69,24.3,91,18.2,1015.2,991.0,0.5,0.15,1.0,8.0,0.0
