2015-08-27 00:52:00,77,20.5,90,15.4,1003.6,979.4,0.8,2.9,4.4,12.8184485494,0.0
2015-08-27 01:52:00,77,20.3,90,15.6,1003.6,979.4,0.6,3.4,5.8,12.0,0.0
2015-08-27 02:52:00,77,20.2,90,15.4,1003.4,979.2,0.3,3.25,5.1,11.3485888393,0.0
2015-08-27 03:52:00,77,20.2,91,15.3,1003.4,979.2,-0.2,3.2,5.8,10.0,0.0
2015-08-27 04:52:00,77,20.0,89,15.3,1003.5,979.3,-0.1,3.2,4.4,13.0849690136,0.0
2015-08-27 05:52:00,78,19.9,87,15.3,1003.8,979.6,0.4,3.2,5.1,12.3946959622,0.0
2015-08-27 06:52:00,78,19.7,86,15.7,1003.9,979.7,0.5,3.25,5.4,11.0486765093,0.0
2015-08-27 07:52:00,78,19.8,82,16.3,1004.0,979.8,0.5,3.2,5.1,11.4208807528,0.0
2015-08-27 08:52:00,78,19.8,82,17.0,1004.2,980.0,0.4,4.25,5.8,10.9627749045,0.0
2015-08-27 09:52:00,78,19.8,79,17.3,1004.4,980.2,0.5,5.3,6.8,11.0994575267,0.0
2015-08-27 10:52:00,77,19.7,77,17.3,1004.7,980.5,0.7,3.4,8.2,14.0,0.0
2015-08-27 11:52:00,77,19.7,73,18.1,1004.8,980.6,0.6,2.7,4.4,13.0,0.0
2015-08-27 12:52:00,76,20.0,62,18.8,1005.0,980.8,0.6,3.4,5.4,10.8343369021,0.0
2015-08-27 13:52:00,75,20.3,61,19.9,1005.4,981.2,0.7,3.9,6.8,11.8695256246,0.0
2015-08-27 14:52:00,75,20.6,60,20.4,1005.5,981.3,0.7,4.05,6.5,10.0,0.0
2015-08-27 15:52:00,73,21.0,57,20.7,1005.6,981.4,0.6,3.7,6.5,11.5,0.0
2015-08-27 16:52:00,73,20.9,59,20.0,1005.5,981.3,0.0999999999999,3.55,6.1,12.107533743,0.0
2015-08-27 17:52:00,72,20.7,68,18.5,1006.0,981.8,0.5,4.1,5.4,14.0,0.0
2015-08-27 18:52:00,74,20.7,68,17.0,1006.7,982.5,1.1,1.7,4.4,0.186719524478,0.0
2015-08-27 19:52:00,74,20.4,76,16.4,1007.5,983.3,2.0,1.05,1.7,9.66859528877,0.0
2015-08-27 20:52:00,75,20.4,81,15.9,1008.3,984.1,2.3,2.05,3.7,14.0,0.0
2015-08-27 21:52:00,75,20.3,84,15.3,1009.0,984.8,2.3,2.4,3.7,10.8193310588,0.0
2015-08-27 22:52:00,75,20.3,86,15.1,1009.4,985.2,1.9,2.2,4.1,14.2779071823,0.0
2015-08-27 23:52:00,75,20.1,89,14.3,1009.8,985.6,1.5,1.55,3.7,8.43122020721,0.0
