2015-09-29 00:29:00,30,67,20.2,75,14.8,1034.6,1010.4,3.1,4.4,8,263.4,0
2015-09-29 00:59:00,30,67,20.2,75,14.8,1034.4,1010.2,2.4,4.4,4,263.4,0
2015-09-29 01:29:00,30,67,20.1,76,14.6,1034.3,1010.1,2.0,3.4,3,263.4,0
2015-09-29 01:59:00,30,67,20.0,79,14.5,1034.2,1010.0,1.4,2.7,4,263.4,0
2015-09-29 02:29:00,30,68,20.0,80,14.4,1034.0,1009.8,2.4,3.4,3,263.4,0
2015-09-29 02:59:00,30,69,19.9,82,13.5,1034.0,1009.8,0.7,1.7,2,263.4,0
2015-09-29 03:29:00,30,69,19.8,84,12.7,1034.1,1009.9,1.0,2.0,0,263.4,0
2015-09-29 03:59:00,30,70,19.7,86,12.2,1034.0,1009.8,1.4,2.0,2,263.4,0
2015-09-29 04:29:00,30,70,19.6,87,11.9,1033.8,1009.6,1.0,1.7,2,263.4,0
2015-09-29 04:59:00,30,70,19.5,88,11.5,1033.8,1009.6,1.0,2.0,0,263.4,0
2015-09-29 05:29:00,30,70,19.4,90,11.2,1034.0,1009.8,1.0,1.4,0,263.4,0
2015-09-29 05:59:00,30,70,19.3,91,10.8,1034.3,1010.1,1.4,2.4,2,263.4,0
2015-09-29 06:29:00,30,71,19.3,90,11.4,1034.3,1010.1,2.0,3.1,2,263.4,0
2015-09-29 06:59:00,30,71,19.5,83,12.7,1034.5,1010.3,1.4,2.0,0,263.4,0
2015-09-29 07:29:00,30,72,19.8,82,13.8,1034.7,1010.5,2.4,3.7,10,263.4,0
2015-09-29 07:59:00,30,69,20.6,77,15.9,1034.9,1010.7,1.0,2.0,2,263.4,0
2015-09-29 08:29:00,30,68,21.2,69,16.7,1034.8,1010.6,2.7,4.1,4,263.4,0
2015-09-29 08:59:00,30,66,22.2,63,17.8,1034.8,1010.6,2.4,3.4,6,263.4,0
2015-09-29 09:29:00,30,65,23.0,61,17.9,1034.9,1010.7,2.7,6.1,5,263.4,0
2015-09-29 09:59:00,30,64,23.7,60,18.4,1035.1,1010.9,2.7,4.4,6,263.4,0
2015-09-29 10:29:00,30,62,24.3,59,18.5,1035.0,1010.8,3.1,5.8,6,263.4,0
2015-09-29 10:59:00,30,61,24.8,60,18.1,1034.9,1010.7,2.4,3.4,8,263.4,0
2015-09-29 11:29:00,30,60,25.1,61,18.1,1034.9,1010.7,3.1,4.1,6,263.4,0
2015-09-29 11:59:00,30,59,25.4,60,18.4,1034.5,1010.3,2.0,3.7,6,263.4,0
2015-09-29 12:29:00,30,58,25.5,54,19.1,1034.3,1010.1,3.1,5.4,2,263.4,0
2015-09-29 12:59:00,30,57,25.9,53,18.7,1034.2,1010.0,3.1,5.4,4,263.4,0
2015-09-29 13:29:00,30,56,25.9,53,18.6,1033.6,1009.4,3.1,4.1,4,263.4,0
2015-09-29 13:59:00,30,55,25.9,55,18.3,1033.4,1009.2,2.7,4.8,2,263.4,0
2015-09-29 14:29:00,30,55,25.5,58,17.6,1033.2,1009.0,3.4,5.8,7,263.4,0
2015-09-29 14:59:00,30,54,25.3,58,17.4,1033.1,1008.9,2.7,5.1,4,263.4,0
2015-09-29 15:29:00,30,55,24.9,60,17.0,1032.9,1008.7,1.7,4.1,4,263.4,0
2015-09-29 15:59:00,30,54,24.5,62,17.0,1033.0,1008.8,2.0,3.1,4,263.4,0
2015-09-29 16:29:00,30,53,24.1,67,16.1,1032.7,1008.5,2.7,3.7,2,263.4,0
2015-09-29 16:59:00,30,54,23.6,71,15.5,1032.5,1008.3,2.0,3.1,4,263.4,0
2015-09-29 17:29:00,30,54,23.2,74,14.9,1032.6,1008.4,2.7,3.4,2,263.4,0
2015-09-29 17:59:00,30,56,22.8,78,14.4,1032.6,1008.4,1.0,1.7,0,263.4,0
2015-09-29 18:29:00,30,56,22.4,82,13.7,1032.5,1008.3,2.0,2.7,2,263.4,0
2015-09-29 18:59:00,30,58,22.3,84,13.0,1032.4,1008.2,2.0,3.1,2,263.4,0
2015-09-29 19:29:00,30,59,22.1,85,13.0,1032.5,1008.3,1.0,2.4,2,263.4,0
2015-09-29 19:59:00,30,60,21.9,76,14.1,1032.6,1008.4,2.0,3.4,2,263.4,0
2015-09-29 20:29:00,30,61,21.7,71,14.6,1032.7,1008.5,3.1,4.8,2,263.4,0
2015-09-29 20:59:00,30,61,21.5,67,15.0,1032.9,1008.7,2.4,3.4,6,263.4,0
2015-09-29 21:29:00,30,61,21.4,69,14.9,1032.7,1008.5,2.4,3.4,5,263.4,0
2015-09-29 21:59:00,30,62,21.3,69,14.8,1032.8,1008.6,2.7,4.8,4,263.4,0
2015-09-29 22:29:00,30,62,21.2,71,14.4,1032.9,1008.7,1.7,3.1,4,263.4,0
2015-09-29 22:59:00,30,62,21.0,71,14.3,1032.9,1008.7,1.7,3.1,3,263.4,0
2015-09-29 23:29:00,30,64,20.9,73,13.6,1032.7,1008.5,2.0,3.4,7,263.4,0
2015-09-29 23:59:00,30,64,20.6,74,13.4,1032.7,1008.5,0.7,1.4,4,263.4,0
