2015-09-07 00:24:00,30,66,19.4,83,11.5,1026.8,1002.6,0.0,0.3,4,202.5,0
2015-09-07 00:54:00,30,67,19.3,85,11.2,1027.1,1002.9,0.3,1.0,4,202.5,0
2015-09-07 01:24:00,30,68,19.2,87,11.0,1026.7,1002.5,0.3,1.0,2,202.5,0
2015-09-07 01:54:00,30,69,19.1,88,11.0,1026.8,1002.6,0.3,0.7,6,202.5,0
2015-09-07 02:24:00,30,69,19.0,90,10.9,1026.8,1002.6,1.0,1.7,14,202.5,0
2015-09-07 02:54:00,30,70,18.9,90,10.8,1026.8,1002.6,0.7,1.7,4,202.5,0
2015-09-07 03:24:00,30,70,18.7,90,10.5,1026.8,1002.6,1.0,1.7,0,202.5,0
2015-09-07 03:54:00,30,70,18.6,90,10.5,1026.7,1002.5,0.7,1.7,0,202.5,0
2015-09-07 04:24:00,30,70,18.6,91,10.3,1026.9,1002.7,1.4,2.0,2,202.5,0
2015-09-07 04:54:00,30,70,18.4,91,10.0,1027.2,1003.0,0.7,1.0,2,202.5,0
2015-09-07 05:24:00,30,70,18.3,93,9.9,1027.0,1002.8,0.7,1.0,0,202.5,0
2015-09-07 05:54:00,30,71,18.3,92,10.8,1027.6,1003.4,1.4,2.7,0,202.5,0
2015-09-07 06:24:00,30,72,18.4,90,10.8,1027.7,1003.5,0.3,1.0,14,202.5,0
2015-09-07 06:54:00,30,71,18.4,91,11.1,1028.1,1003.9,1.4,2.4,0,202.5,0
2015-09-07 07:24:00,30,70,18.8,80,14.1,1028.1,1003.9,0.7,1.4,6,202.5,0
2015-09-07 07:54:00,30,68,19.5,71,16.4,1028.4,1004.2,1.0,1.7,8,202.5,0
2015-09-07 08:24:00,30,66,20.1,65,18.0,1028.4,1004.2,1.0,1.7,2,202.5,0
2015-09-07 08:54:00,30,65,20.6,63,18.3,1028.4,1004.2,1.0,2.4,0,202.5,0
2015-09-07 09:24:00,30,64,21.2,62,18.7,1028.5,1004.3,2.7,4.1,0,202.5,0
2015-09-07 09:54:00,30,63,21.2,64,18.0,1028.7,1004.5,1.0,1.7,2,202.5,0
2015-09-07 10:24:00,30,63,21.5,62,19.0,1028.5,1004.3,1.7,3.4,0,202.5,0
2015-09-07 10:54:00,30,63,21.4,67,17.2,1028.8,1004.6,1.7,3.4,10,202.5,0
2015-09-07 11:24:00,30,62,21.1,70,16.6,1028.7,1004.5,0.7,2.0,2,202.5,0
2015-09-07 11:54:00,30,63,20.9,70,16.7,1028.9,1004.7,0.7,1.7,1,202.5,0
2015-09-07 12:24:00,30,63,20.9,64,18.9,1028.7,1004.5,1.0,1.4,14,202.5,0
2015-09-07 12:54:00,30,62,21.0,62,19.0,1028.7,1004.5,2.0,3.4,1,202.5,0
2015-09-07 13:24:00,30,62,21.2,56,19.9,1028.6,1004.4,2.7,5.1,1,202.5,0
2015-09-07 13:54:00,30,62,21.5,56,19.2,1028.6,1004.4,2.0,5.4,2,202.5,0
2015-09-07 14:24:00,30,61,21.5,59,18.7,1028.5,1004.3,3.4,5.1,2,202.5,0
2015-09-07 14:54:00,30,61,21.5,52,20.2,1028.5,1004.3,1.4,2.7,12,202.5,0
2015-09-07 15:24:00,30,61,21.5,50,21.1,1028.4,1004.2,0.7,1.4,1,202.5,0
2015-09-07 15:54:00,30,61,21.5,54,19.8,1028.0,1003.8,1.0,2.0,0,202.5,0
2015-09-07 16:24:00,30,61,21.4,55,19.0,1028.1,1003.9,1.7,2.4,4,202.5,0
2015-09-07 16:54:00,30,61,21.4,59,18.7,1028.3,1004.1,1.4,2.0,0,202.5,0
2015-09-07 17:24:00,30,62,21.2,61,17.2,1028.5,1004.3,2.0,3.7,0,202.5,0
2015-09-07 17:54:00,30,61,21.1,66,15.8,1028.6,1004.4,2.0,3.7,13,202.5,0
2015-09-07 18:24:00,30,62,20.9,71,15.1,1028.9,1004.7,1.0,1.7,14,202.5,0
2015-09-07 18:54:00,30,63,20.7,74,14.2,1029.1,1004.9,1.0,1.7,2,202.5,0
2015-09-07 19:24:00,30,62,20.6,76,13.8,1029.6,1005.4,0.7,1.4,2,202.5,0
2015-09-07 19:54:00,30,62,20.5,77,13.8,1029.6,1005.4,1.4,1.7,2,202.5,0
2015-09-07 20:24:00,30,62,20.4,77,13.8,1029.7,1005.5,1.0,2.0,2,202.5,0
2015-09-07 20:54:00,30,62,20.3,78,13.8,1029.5,1005.3,1.0,2.0,2,202.5,0
2015-09-07 21:24:00,30,63,20.2,79,13.8,1029.6,1005.4,0.7,1.7,0,202.5,0
2015-09-07 21:54:00,30,63,20.2,80,13.8,1029.3,1005.1,0.7,1.4,12,202.5,0
2015-09-07 22:24:00,30,64,20.2,80,13.8,1029.3,1005.1,0.7,1.7,2,202.5,0
2015-09-07 22:54:00,30,64,20.1,78,13.2,1029.3,1005.1,1.0,2.0,2,202.5,0
2015-09-07 23:24:00,30,64,20.0,82,13.2,1029.1,1004.9,0.3,1.4,2,202.5,0
2015-09-07 23:54:00,30,66,19.9,82,13.2,1029.0,1004.8,0.3,1.4,4,202.5,0
