2015-09-09 00:24:00,30,69,19.0,87,13.1,1023.3,999.1,1.4,2.4,0,202.5,0
2015-09-09 00:54:00,30,70,19.0,89,13.1,1023.0,998.8,1.4,2.7,0,202.5,0
2015-09-09 01:24:00,30,71,18.9,91,13.1,1022.7,998.5,1.7,2.7,2,202.5,0
2015-09-09 01:54:00,30,71,18.9,92,12.8,1022.7,998.5,1.4,2.0,2,202.5,0
2015-09-09 02:24:00,30,71,18.8,94,12.8,1022.4,998.2,1.4,2.4,0,202.5,0
2015-09-09 02:54:00,30,71,18.7,94,12.7,1022.2,998.0,1.0,1.7,0,202.5,0
2015-09-09 03:24:00,30,71,18.7,93,12.7,1022.3,998.1,1.7,2.7,2,202.5,0
2015-09-09 03:54:00,30,71,18.6,93,12.6,1022.1,997.9,1.0,2.0,2,202.5,0
2015-09-09 04:24:00,30,71,18.5,93,12.6,1022.0,997.8,1.7,2.7,2,202.5,0
2015-09-09 04:54:00,30,71,18.5,92,12.7,1021.8,997.6,1.4,2.0,0,202.5,0
2015-09-09 05:24:00,30,71,18.4,92,12.7,1021.9,997.7,2.0,3.4,0,202.5,0
2015-09-09 05:54:00,30,72,18.4,92,12.8,1022.1,997.9,2.7,4.1,2,202.5,0
2015-09-09 06:24:00,30,72,18.3,91,12.9,1022.2,998.0,2.4,3.1,2,202.5,0
2015-09-09 06:54:00,30,72,18.3,93,13.0,1022.1,997.9,1.4,2.4,2,202.5,0
2015-09-09 07:24:00,30,74,18.5,93,13.1,1022.1,997.9,2.4,3.7,2,202.5,0
2015-09-09 07:54:00,30,74,18.6,90,14.0,1022.3,998.1,1.7,2.7,2,202.5,0
2015-09-09 08:24:00,30,73,19.0,81,16.5,1022.2,998.0,1.7,3.1,4,202.5,0
2015-09-09 08:54:00,30,72,19.2,81,16.5,1022.3,998.1,2.0,2.7,4,202.5,0
2015-09-09 09:24:00,30,71,19.5,71,18.4,1022.3,998.1,1.7,3.1,6,202.5,0
2015-09-09 09:54:00,30,71,20.4,58,19.9,1022.0,997.8,3.4,4.1,5,202.5,0
2015-09-09 10:24:00,30,70,21.1,60,19.8,1022.0,997.8,2.0,3.1,4,202.5,0
2015-09-09 10:54:00,30,69,21.8,64,19.1,1022.0,997.8,2.7,3.4,6,202.5,0
2015-09-09 11:24:00,30,68,22.4,62,19.8,1021.7,997.5,2.7,4.1,6,202.5,0
2015-09-09 11:54:00,30,67,22.8,64,19.5,1021.8,997.6,3.7,4.4,6,202.5,0
2015-09-09 12:24:00,30,66,23.2,67,18.9,1021.7,997.5,3.7,5.1,3,202.5,0
2015-09-09 12:54:00,30,65,23.5,63,19.2,1021.6,997.4,3.4,5.1,5,202.5,0
2015-09-09 13:24:00,30,64,23.5,66,18.9,1021.3,997.1,4.1,6.1,6,202.5,0
2015-09-09 13:54:00,30,64,23.4,61,19.0,1021.0,996.8,4.1,5.4,8,202.5,0
2015-09-09 14:24:00,30,63,23.3,62,18.8,1021.0,996.8,4.4,6.1,6,202.5,0
2015-09-09 14:54:00,30,63,23.1,61,19.0,1021.1,996.9,4.1,5.1,5,202.5,0
2015-09-09 15:24:00,30,62,22.9,59,19.4,1020.6,996.4,3.7,5.8,6,202.5,0
2015-09-09 15:54:00,30,61,22.6,62,18.6,1020.6,996.4,4.1,5.4,6,202.5,0
2015-09-09 16:24:00,30,61,22.4,60,18.7,1020.4,996.2,2.0,3.1,6,202.5,0
2015-09-09 16:54:00,30,61,22.2,64,18.4,1020.3,996.1,1.7,2.4,4,202.5,0
2015-09-09 17:24:00,30,61,22.0,70,17.1,1020.1,995.9,2.0,3.1,4,202.5,0
2015-09-09 17:54:00,30,63,21.8,73,16.6,1020.2,996.0,1.0,2.4,5,202.5,0
2015-09-09 18:24:00,30,63,21.6,76,16.1,1020.1,995.9,1.4,2.0,2,202.5,0
2015-09-09 18:54:00,30,63,21.4,82,15.8,1020.4,996.2,2.0,3.7,4,202.5,0
2015-09-09 19:24:00,30,63,21.2,82,15.6,1020.6,996.4,1.4,2.4,4,202.5,0
2015-09-09 19:54:00,30,64,21.1,83,15.1,1020.7,996.5,1.0,1.4,3,202.5,0
2015-09-09 20:24:00,30,64,21.0,83,14.9,1020.7,996.5,0.3,1.0,4,202.5,0
2015-09-09 20:54:00,30,65,20.9,84,14.5,1020.7,996.5,1.7,2.4,2,202.5,0
2015-09-09 21:24:00,30,65,20.6,83,14.5,1020.6,996.4,2.0,3.1,9,202.5,0
2015-09-09 21:54:00,30,65,20.7,84,14.4,1020.4,996.2,1.4,2.0,0,202.5,0
2015-09-09 22:24:00,30,66,20.6,87,13.8,1020.6,996.4,1.7,2.7,0,202.5,0
2015-09-09 22:54:00,30,67,20.4,92,13.1,1020.7,996.5,1.0,1.4,14,202.5,0
2015-09-09 23:24:00,30,67,20.4,92,13.1,1020.5,996.3,1.4,2.4,0,202.5,0
2015-09-09 23:54:00,30,68,20.3,92,13.7,1020.6,996.4,0.7,1.0,0,202.5,0
