2015-11-26 00:44:00,62,17.8,89,3.5,1014.4,990.2,1.0,0.0,0.0,8.0,0.0
2015-11-26 01:44:01,63,17.3,90,3.5,1014.6,990.4,1.0,0.0,0.0,8.0,0.0
2015-11-26 02:44:01,65,16.7,91,3.4,1014.9,990.7,1.0,0.0,0.0,8.0,0.0
2015-11-26 03:44:01,67,16.3,88,2.9,1015.2,991.0,0.8,0.0,0.0,8.0,0.0
2015-11-26 04:44:01,67,16.0,92,3.4,1015.9,991.7,1.3,0.0,0.0,8.0,0.0
2015-11-26 05:44:01,69,15.7,92,4.1,1016.1,991.9,1.2,0.0,0.0,8.0,0.0
2015-11-26 06:44:01,70,15.4,93,4.9,1016.7,992.5,1.5,0.0,0.0,8.0,0.0
2015-11-26 07:44:01,71,16.5,93,4.3,1017.0,992.8,1.1,0.0,0.0,8.0,0.0
2015-11-26 08:44:01,72,18.3,92,7.9,1017.9,993.7,1.8,0.0,0.0,8.0,0.0
2015-11-26 09:44:01,67,20.2,78,12.5,1018.0,993.8,1.3,0.0,0.0,8.0,0.0
2015-11-26 10:44:01,63,20.9,73,11.1,1018.3,994.1,1.3,0.35,1.7,4.0,0.0
2015-11-26 11:44:01,61,20.2,74,11.7,1018.5,994.3,0.6,0.0,0.0,8.0,0.0
2015-11-26 12:44:01,60,21.0,62,15.2,1018.4,994.2,0.4,0.5,1.0,10.3248763487,0.0
2015-11-26 13:44:01,52,24.1,68,12.2,1018.2,994.0,-0.1,0.7,1.4,9.0,0.0
2015-11-26 14:44:01,51,22.2,72,11.5,1018.3,994.1,-0.2,0.0,0.0,8.0,0.0
2015-11-26 15:44:01,54,20.2,78,9.5,1018.3,994.1,-0.1,0.0,0.0,8.0,0.0
2015-11-26 16:44:01,60,19.2,82,9.0,1018.6,994.4,0.4,0.35,1.4,10.0,0.0
2015-11-26 17:44:01,63,19.6,85,8.8,1018.7,994.5,0.4,0.35,1.7,6.0,0.0
2015-11-26 18:44:01,62,20.0,84,8.9,1019.0,994.8,0.7,0.35,1.4,14.0,0.0
2015-11-26 19:44:01,63,20.2,86,8.5,1018.7,994.5,0.1,0.15,1.0,14.0,0.0
2015-11-26 20:44:01,63,20.4,87,8.6,1018.6,994.4,-0.1,0.0,0.7,8.0,0.0
2015-11-26 21:44:01,62,20.4,88,8.5,1018.0,993.8,-1.0,0.5,1.0,6.58188391125,0.0
2015-11-26 22:44:01,62,20.1,92,8.9,1017.9,993.7,-0.8,1.35,2.4,10.7275809256,0.0
2015-11-26 23:44:01,66,19.5,92,8.9,1017.7,993.5,-0.9,1.2,2.7,10.0,0.0
