2015-11-12 00:40:01,78,19.5,85,12.4,1020.1,995.9,1.0,1.7,2.7,14.0,0.0
2015-11-12 01:40:01,79,19.4,85,12.4,1020.6,996.4,1.3,1.5,2.7,11.3493863735,0.0
2015-11-12 02:40:00,79,19.2,87,12.3,1020.7,996.5,1.3,0.5,1.0,15.8349438402,0.0
2015-11-12 03:40:00,79,19.1,87,12.4,1020.8,996.6,0.7,2.4,3.4,12.0,0.0
2015-11-12 04:40:01,79,19.0,88,12.1,1020.9,996.7,0.3,2.4,3.4,13.0,0.0
2015-11-12 05:40:01,80,18.8,89,11.9,1021.4,997.2,0.7,2.0,3.4,15.0,0.0
2015-11-12 06:40:01,80,18.6,90,11.7,1021.4,997.2,0.6,2.7,4.1,12.0,0.0
2015-11-12 07:40:01,81,19.5,91,11.7,1021.8,997.6,0.9,2.05,2.7,11.9955828648,0.0
2015-11-12 08:40:01,80,20.0,88,12.1,1022.0,997.8,0.6,2.05,3.1,12.0,0.0
2015-11-12 09:40:01,77,20.2,88,13.1,1021.8,997.6,0.4,1.85,2.7,12.91450893,0.0
2015-11-12 10:40:01,78,21.9,77,15.3,1021.5,997.3,-0.3,3.1,4.1,13.0,0.0
2015-11-12 11:40:01,72,22.5,76,15.2,1020.7,996.5,-1.3,3.1,4.8,12.0,0.0
2015-11-12 12:40:01,71,22.8,78,15.8,1019.8,995.6,-2.0,2.85,4.4,11.3129995004,0.0
2015-11-12 13:40:01,63,24.1,77,15.2,1019.1,994.9,-2.4,3.9,6.5,10.0,0.0
2015-11-12 14:40:01,69,21.9,83,14.3,1018.4,994.2,-2.3,3.1,4.1,9.0,0.0
2015-11-12 15:40:01,71,20.9,78,14.7,1017.9,993.7,-1.9,4.05,5.4,14.0,0.0
2015-11-12 16:40:01,71,20.4,77,13.5,1018.0,993.8,-1.1,5.6,7.5,8.96233181282,0.0
2015-11-12 17:40:01,72,20.5,83,13.0,1017.3,993.1,-1.1,4.05,6.1,12.8275339448,0.0
2015-11-12 18:40:01,72,20.5,86,13.0,1016.6,992.4,-1.3,4.45,6.1,10.0,0.0
2015-11-12 19:40:01,73,20.4,86,13.6,1016.0,991.8,-2.0,4.75,6.8,9.73219161127,0.0
2015-11-12 20:40:01,72,20.2,86,13.5,1015.0,990.8,-2.3,5.45,7.1,10.0,0.0
2015-11-12 21:40:01,72,20.1,86,13.7,1014.7,990.5,-1.9,6.1,9.9,11.5830076665,0.0
2015-11-12 22:40:01,73,19.8,82,14.2,1014.3,990.1,-1.7,4.45,7.1,10.4601641118,0.0
2015-11-12 23:40:01,73,19.5,81,14.0,1014.3,990.1,-0.7,4.6,7.5,9.44495138274,0.0
