2015-11-29 00:44:01,72,17.8,74,9.8,1003.8,979.6,1.0,3.2,8.8,12.9136020098,0.0
2015-11-29 01:44:01,73,17.5,76,9.6,1004.1,979.9,0.9,2.75,5.4,14.0,0.0
2015-11-29 02:44:01,74,17.3,77,9.6,1004.3,980.1,0.6,3.75,6.1,10.817483579,0.0
2015-11-29 03:44:00,74,17.0,77,9.5,1004.4,980.2,0.6,3.4,5.8,12.2241089364,0.0
2015-11-29 04:44:00,76,16.8,78,9.2,1004.9,980.7,0.8,2.55,4.8,10.0,0.0
2015-11-29 05:44:01,76,16.5,77,9.3,1004.8,980.6,0.5,2.0,3.7,13.5,0.0
2015-11-29 06:44:01,77,16.4,78,9.3,1005.3,981.1,0.9,3.1,5.8,14.0,0.0
2015-11-29 07:44:01,79,17.3,74,9.9,1005.4,981.2,0.5,3.75,6.8,10.0,0.0
2015-11-29 08:44:01,75,18.0,78,10.1,1005.0,980.8,0.2,5.45,7.8,11.0677225911,0.0
2015-11-29 09:44:01,75,18.4,77,10.6,1004.7,980.5,-0.6,4.95,6.8,14.0,0.0
2015-11-29 10:44:01,74,18.6,71,11.4,1004.7,980.5,-0.7,3.1,6.1,12.0,0.0
2015-11-29 11:44:01,75,18.3,70,11.4,1004.1,979.9,-0.9,3.4,6.5,13.6042265622,0.0
2015-11-29 12:44:01,77,18.1,64,12.3,1003.7,979.5,-1.0,4.95,7.1,13.5869454418,0.0
2015-11-29 13:44:01,77,17.9,70,12.1,1003.8,979.6,-0.9,5.6,8.5,13.4547792019,0.3
2015-11-29 14:44:01,75,17.5,68,12.3,1003.9,979.7,-0.2,5.25,7.5,10.0,0.0
2015-11-29 15:44:01,74,17.2,68,12.9,1003.6,979.4,-0.1,6.95,11.2,6.22477423326,0.3
2015-11-29 16:44:01,74,17.0,67,13.3,1004.1,979.9,0.3,5.8,10.5,8.0,0.0
2015-11-29 17:45:01,77,17.7,75,12.3,1005.1,980.9,1.2,4.95,9.9,10.0,0.0
2015-11-29 18:45:01,76,18.6,78,12.1,1006.4,982.2,2.8,5.1,7.5,12.0,0.3
2015-11-29 19:45:01,76,18.9,85,11.5,1007.8,983.6,3.7,3.6,7.5,15.9781155743,3.3
2015-11-29 20:45:01,74,19.3,75,10.3,1009.6,985.4,4.5,2.7,6.5,8.0,0.0
2015-11-29 21:45:01,74,19.5,66,9.8,1011.0,986.8,4.6,2.2,4.1,10.0,0.0
2015-11-29 22:45:01,71,19.2,67,9.5,1011.9,987.7,4.1,2.2,5.1,15.8443470429,0.0
2015-11-29 23:45:01,72,18.8,63,9.3,1013.1,988.9,3.5,2.75,4.8,3.67763579499,0.0
