2015-12-01 00:15:00,30,73,18.9,91,8.9,1017.4,0.0,0.0,6,345.0,0
2015-12-01 00:45:00,30,74,18.8,91,8.6,1017.8,0.0,0.0,6,345.9,0
2015-12-01 01:15:00,30,74,18.7,91,8.5,1018.1,0.0,0.0,6,346.2,0
2015-12-01 01:45:00,30,74,18.5,92,8.4,1018.1,0.0,0.0,8,346.2,0
2015-12-01 02:15:00,30,74,18.4,92,8.3,1018.5,0.0,0.0,8,346.5,0
2015-12-01 02:45:00,30,74,18.2,92,8.0,1018.5,0.0,0.0,8,346.8,0
2015-12-01 03:15:01,30,74,18.1,91,7.9,1018.7,0.0,0.0,8,346.8,0
2015-12-01 03:45:01,30,75,18.0,91,7.9,1019.0,0.0,0.0,6,347.1,0
2015-12-01 04:15:01,30,76,17.9,92,8.0,1018.6,0.0,0.0,8,347.4,0
2015-12-01 04:45:01,30,76,17.8,92,7.9,1019.0,0.0,0.0,8,347.4,0
2015-12-01 05:15:01,30,76,17.7,92,7.9,1019.3,0.0,0.0,6,347.4,0
2015-12-01 05:45:01,30,76,17.6,92,8.0,1019.4,0.0,0.3,8,347.4,0
2015-12-01 06:15:01,30,76,17.5,93,8.2,1019.4,1.0,1.4,8,347.7,0
2015-12-01 06:45:01,30,77,17.5,93,8.4,1019.2,1.4,1.7,8,347.7,0
2015-12-01 07:15:01,30,78,17.8,94,8.6,1019.8,0.7,1.0,6,347.7,0
2015-12-01 07:45:01,30,79,18.4,94,8.8,1019.8,0.0,0.0,8,347.7,0
2015-12-01 08:15:01,30,81,19.0,94,9.2,1019.8,0.0,0.0,8,347.7,0
2015-12-01 08:45:01,30,76,19.2,94,10.2,1020.2,0.3,1.0,10,347.7,0
2015-12-01 09:15:01,30,74,19.2,95,10.9,1020.3,1.7,2.4,12,347.7,0
2015-12-01 09:45:01,30,74,19.2,94,11.7,1020.6,1.7,3.1,10,347.7,0
2015-12-01 10:15:01,30,74,19.4,93,12.2,1021.1,3.1,4.4,14,347.7,0
2015-12-01 10:45:01,30,73,19.4,89,12.8,1021.2,2.7,5.1,10,347.7,0
2015-12-01 11:15:01,30,73,19.4,81,13.7,1021.1,4.4,6.5,0,347.7,0
2015-12-01 11:45:01,30,73,19.5,80,13.0,1021.2,3.1,4.8,14,347.7,0
2015-12-01 12:15:01,30,72,19.2,75,13.5,1021.4,4.8,6.1,10,348.0,0
2015-12-01 12:45:01,30,72,19.0,73,13.9,1021.3,3.4,5.1,14,348.0,0
2015-12-01 13:15:01,30,71,20.9,66,15.0,1021.0,1.0,1.7,6,348.0,0
2015-12-01 13:45:01,30,64,23.2,69,13.9,1020.6,1.4,2.4,0,348.0,0
2015-12-01 14:15:01,30,62,23.2,70,13.6,1021.1,3.1,4.4,14,348.0,0
2015-12-01 14:45:01,30,62,23.4,68,13.8,1021.0,1.4,2.0,10,348.0,0
2015-12-01 15:15:01,30,62,21.3,75,12.0,1020.9,1.0,2.0,12,348.0,0
2015-12-01 15:45:01,30,65,20.3,76,11.8,1021.2,2.7,4.1,14,348.0,0
2015-12-01 16:15:01,30,67,19.6,74,12.3,1021.2,1.7,2.7,10,348.0,0
2015-12-01 16:45:01,30,68,19.1,76,11.8,1021.4,1.4,2.4,12,348.0,0
2015-12-01 17:15:01,30,70,19.2,77,11.4,1021.9,1.7,3.1,4,348.0,0
2015-12-01 17:45:01,30,71,19.5,78,11.2,1022.1,3.1,5.1,11,348.0,0
2015-12-01 18:15:01,30,71,19.7,77,11.2,1021.9,3.1,4.1,10,348.0,0
2015-12-01 18:45:01,30,71,19.6,81,11.1,1022.3,2.7,3.7,10,348.0,0
2015-12-01 19:15:01,30,71,19.5,79,11.2,1022.7,2.4,3.4,14,348.0,0
2015-12-01 19:45:01,30,71,19.7,78,11.1,1022.4,2.4,2.7,10,348.0,0
2015-12-01 20:15:01,30,71,19.7,76,11.0,1022.5,2.7,4.1,10,348.0,0
2015-12-01 20:45:01,30,71,19.8,72,11.1,1022.8,3.4,4.8,14,348.0,0
2015-12-01 21:15:01,30,71,19.8,68,11.5,1022.7,2.0,3.4,8,348.0,0
2015-12-01 21:45:01,30,71,19.8,69,11.3,1022.7,3.4,4.8,10,348.0,0
2015-12-01 22:15:01,30,71,19.8,70,11.0,1022.4,3.1,5.1,12,348.0,0
2015-12-01 22:45:01,30,71,19.7,69,11.2,1022.4,2.4,3.1,12,348.0,0
2015-12-01 23:15:01,30,71,19.6,72,10.8,1022.6,2.0,2.7,12,348.0,0
2015-12-01 23:45:01,30,71,19.3,69,11.3,1022.4,2.4,3.1,10,348.0,0
