2015-09-09 00:54:00,70,19.0,89,13.1,1023.0,998.8,-0.9,1.4,2.7,16.0,0.0
2015-09-09 01:54:00,71,18.9,92,12.8,1022.7,998.5,-1.0,1.55,2.7,2.0,0.0
2015-09-09 02:54:00,71,18.7,94,12.7,1022.2,998.0,-0.9,1.2,2.4,16.0,0.0
2015-09-09 03:54:00,71,18.6,93,12.6,1022.1,997.9,-0.9,1.35,2.7,2.0,0.0
2015-09-09 04:54:00,71,18.5,92,12.7,1021.8,997.6,-0.9,1.55,2.7,1.10202146142,0.0
2015-09-09 05:54:00,72,18.4,92,12.8,1022.1,997.9,-0.1,2.35,4.1,1.15689697403,0.0
2015-09-09 06:54:00,72,18.3,93,13.0,1022.1,997.9,0.0,1.9,3.1,2.0,0.0
2015-09-09 07:54:00,74,18.6,90,14.0,1022.3,998.1,0.5,2.05,3.7,2.0,0.0
2015-09-09 08:54:00,72,19.2,81,16.5,1022.3,998.1,0.2,1.85,3.1,4.0,0.0
2015-09-09 09:54:00,71,20.4,58,19.9,1022.0,997.8,-0.1,2.55,4.1,5.33140471123,0.0
2015-09-09 10:54:00,69,21.8,64,19.1,1022.0,997.8,-0.3,2.35,3.4,5.15689697403,0.0
2015-09-09 11:54:00,67,22.8,64,19.5,1021.8,997.6,-0.5,3.2,4.4,6.0,0.0
2015-09-09 12:54:00,65,23.5,63,19.2,1021.6,997.4,-0.4,3.55,5.1,3.95543611995,0.0
2015-09-09 13:54:00,64,23.4,61,19.0,1021.0,996.8,-1.0,4.1,6.1,7.0,0.0
2015-09-09 14:54:00,63,23.1,61,19.0,1021.1,996.9,-0.7,4.25,6.1,5.51787710104,0.0
2015-09-09 15:54:00,61,22.6,62,18.6,1020.6,996.4,-1.0,3.9,5.8,6.0,0.0
2015-09-09 16:54:00,61,22.2,64,18.4,1020.3,996.1,-0.7,1.85,3.1,5.08549107,0.0
2015-09-09 17:54:00,63,21.8,73,16.6,1020.2,996.0,-0.9,1.5,3.1,4.33140471123,0.0
2015-09-09 18:54:00,63,21.4,82,15.8,1020.4,996.2,-0.2,1.7,3.7,3.18580827627,0.0
2015-09-09 19:54:00,64,21.1,83,15.1,1020.7,996.5,0.4,1.2,2.4,3.58439012317,0.0
2015-09-09 20:54:00,65,20.9,84,14.5,1020.7,996.5,0.5,1.0,2.4,2.28135601472,0.0
2015-09-09 21:54:00,65,20.7,84,14.4,1020.4,996.2,0.0,1.7,3.1,10.6520569398,0.0
2015-09-09 22:54:00,67,20.4,92,13.1,1020.7,996.5,0.0,1.35,2.7,15.2724190744,0.0
2015-09-09 23:54:00,68,20.3,92,13.7,1020.6,996.4,-0.1,1.05,2.4,16.0,0.0
