2015-09-14 00:55:00,71,18.4,96,12.3,997.0,972.8,-2.1,1.0,1.7,4.5,0.0
2015-09-14 01:55:00,72,18.3,83,14.4,996.2,972.0,-2.4,2.4,3.7,7.30616218021,0.0
2015-09-14 02:56:00,72,18.2,87,14.4,995.3,971.1,-3.0,3.25,4.4,6.95132349068,0.3
2015-09-14 03:56:00,72,18.1,96,13.8,994.3,970.1,-2.7,3.9,5.4,6.94591653464,3.0
2015-09-14 04:56:00,73,18.0,95,15.0,993.4,969.2,-2.8,3.25,4.8,6.0,0.6
2015-09-14 05:56:00,73,17.9,97,15.3,993.0,968.8,-2.3,3.05,5.4,9.36069143374,0.9
2015-09-14 06:56:00,77,18.1,95,15.3,993.1,968.9,-1.2,3.1,3.7,9.5,0.0
2015-09-14 07:56:00,76,18.4,93,15.9,992.7,968.5,-0.7,1.85,2.7,10.08549107,0.3
2015-09-14 08:56:00,75,18.7,90,16.2,992.7,968.5,-0.3,3.05,4.8,10.0,0.0
2015-09-14 09:56:00,74,19.6,86,18.0,992.4,968.2,-0.7,3.25,4.4,12.0486765093,0.0
2015-09-14 10:56:00,73,19.4,92,15.4,991.8,967.6,-0.9,4.05,5.8,9.09111545656,1.2
2015-09-14 11:56:00,73,19.4,91,15.9,991.5,967.3,-1.2,3.75,5.4,13.7630151608,0.6
2015-09-14 12:56:00,73,20.6,80,17.6,991.2,967.0,-1.2,4.05,5.8,15.7804793092,0.0
2015-09-14 13:56:00,72,20.7,80,17.1,991.0,966.8,-0.8,6.6,8.2,10.0,0.0
2015-09-14 14:56:00,71,20.6,67,18.2,991.1,966.9,-0.4,7.85,10.5,14.0,0.0
2015-09-14 15:56:00,70,20.6,70,16.2,991.8,967.6,0.6,6.45,10.9,10.0,0.0
2015-09-14 16:56:00,70,20.2,72,15.5,992.1,967.9,1.1,6.15,11.2,12.9399826339,0.3
2015-09-14 17:56:00,70,19.9,66,15.3,992.8,968.6,1.7,5.1,7.5,12.0,0.0
2015-09-14 18:56:00,74,19.6,75,14.0,993.6,969.4,1.8,5.6,8.8,10.0,0.0
2015-09-14 19:56:00,74,19.5,76,13.1,994.3,970.1,2.2,5.1,6.8,12.8553811075,0.0
2015-09-14 20:56:00,72,19.3,76,13.1,994.1,969.9,1.3,6.25,9.2,10.0,0.0
2015-09-14 21:56:00,72,19.0,73,13.1,994.5,970.3,0.9,5.75,8.8,10.7531308594,0.0
2015-09-14 22:56:00,72,18.8,76,13.0,994.7,970.5,0.4,5.25,8.5,10.4180193331,0.0
2015-09-14 23:56:00,72,18.6,80,12.3,994.4,970.2,0.3,4.95,6.8,12.3845919498,0.0
