2015-09-27 00:59:00,69,19.2,88,10.4,1029.3,1005.1,0.0,1.2,1.7,1.41560987683,0.0
2015-09-27 01:59:00,70,18.9,90,10.2,1029.9,1005.7,0.5,1.5,2.7,1.33140471123,0.0
2015-09-27 02:59:00,69,18.6,91,10.0,1029.8,1005.6,0.4,1.55,3.1,2.0,0.0
2015-09-27 03:59:00,69,18.4,92,9.9,1030.0,1005.8,0.7,1.7,3.7,2.0,0.0
2015-09-27 04:59:00,70,18.1,92,9.7,1030.5,1006.3,0.6,1.55,2.7,16.0,0.0
2015-09-27 05:59:00,70,17.9,92,9.6,1031.0,1006.8,1.2,2.4,3.1,16.0,0.0
2015-09-27 06:59:00,70,17.8,90,10.5,1031.7,1007.5,1.7,1.7,3.1,1.0,0.0
2015-09-27 07:59:00,72,18.4,76,14.7,1032.4,1008.2,1.9,2.0,3.4,2.0,0.0
2015-09-27 08:59:00,71,20.1,72,16.4,1032.7,1008.5,1.7,1.55,2.7,2.66443265176,0.0
2015-09-27 09:59:00,69,21.0,64,18.1,1032.9,1008.7,1.2,2.2,3.4,6.27790718228,0.0
2015-09-27 10:59:00,67,21.7,66,17.8,1032.9,1008.7,0.5,3.7,5.1,5.0,0.0
2015-09-27 11:59:00,66,21.9,65,17.9,1033.0,1008.8,0.3,2.9,4.4,5.07272409647,0.0
2015-09-27 12:59:00,64,22.3,68,17.7,1032.9,1008.7,0.0,2.9,4.1,6.0,0.0
2015-09-27 13:59:00,65,22.8,57,18.9,1033.0,1008.8,0.0999999999999,1.85,3.4,3.79397940325,0.0
2015-09-27 14:59:00,64,22.9,56,18.1,1032.9,1008.7,-0.0999999999999,2.4,4.4,4.5,0.0
2015-09-27 15:59:00,63,22.4,59,17.4,1033.3,1009.1,0.4,1.85,3.1,3.08549107,0.0
2015-09-27 16:59:00,62,21.9,66,15.5,1033.6,1009.4,0.6,2.9,4.8,3.07272409647,0.0
2015-09-27 17:59:00,62,21.4,73,14.0,1034.0,1009.8,1.1,0.85,1.4,2.0,0.0
2015-09-27 18:59:00,63,21.0,80,12.9,1034.4,1010.2,1.1,1.2,2.4,2.42054765369,0.0
2015-09-27 19:59:00,64,20.6,84,12.1,1034.9,1010.7,1.3,1.4,2.4,2.0,0.0
2015-09-27 20:59:00,64,20.4,89,11.9,1034.7,1010.5,0.7,1.7,2.7,15.5,0.0
2015-09-27 21:59:00,65,20.2,90,11.6,1034.7,1010.5,0.3,1.0,1.7,2.0,0.0
2015-09-27 22:59:00,67,19.9,91,11.1,1034.9,1010.7,0.0,1.5,2.7,2.0,0.0
2015-09-27 23:59:00,68,19.7,92,11.3,1034.7,1010.5,0.0,1.7,2.7,1.0,0.0
