2015-09-28 00:59:00,69,19.4,92,11.4,1034.7,1010.5,0.0,0.85,2.0,1.58935028768,0.0
2015-09-28 01:59:00,70,19.3,93,11.3,1034.9,1010.7,0.0,1.0,1.7,2.0,0.0
2015-09-28 02:59:00,70,19.0,92,11.4,1034.5,1010.3,-0.2,1.35,2.0,1.63120537422,0.0
2015-09-28 03:59:00,71,18.8,93,11.0,1035.1,1010.9,0.4,1.05,2.0,2.0,0.0
2015-09-28 04:59:00,71,18.5,95,10.5,1035.4,1011.2,0.5,1.0,1.7,2.0,0.0
2015-09-28 05:59:00,71,18.4,94,10.4,1035.6,1011.4,1.1,1.4,2.4,2.0,0.0
2015-09-28 06:59:00,73,18.5,87,12.9,1036.0,1011.8,0.9,0.7,1.4,1.0,0.0
2015-09-28 07:59:00,72,19.5,73,16.9,1036.4,1012.2,1.0,1.0,1.7,2.0,0.0
2015-09-28 08:59:00,72,20.6,68,17.3,1036.5,1012.3,0.9,2.55,4.1,4.93796602852,0.0
2015-09-28 09:59:00,69,21.5,67,17.6,1036.8,1012.6,0.8,2.0,3.4,6.0,0.0
2015-09-28 10:59:00,65,22.1,62,17.7,1036.8,1012.6,0.4,3.2,4.8,5.16458079781,0.0
2015-09-28 11:59:00,64,22.7,64,17.2,1036.3,1012.1,-0.2,2.7,3.7,6.0,0.0
2015-09-28 12:59:00,63,22.9,62,17.8,1035.9,1011.7,-0.9,2.75,4.4,5.67763579499,0.0
2015-09-28 13:59:00,63,23.3,62,17.8,1035.6,1011.4,-1.2,2.55,3.7,6.0,0.0
2015-09-28 14:59:00,62,23.2,59,17.8,1035.2,1011.0,-1.1,2.9,4.1,6.0,0.0
2015-09-28 15:59:00,61,22.7,60,17.7,1034.9,1010.7,-1.0,1.55,3.1,4.54901260977,0.0
2015-09-28 16:59:00,61,22.2,69,15.9,1035.1,1010.9,-0.5,2.35,4.1,4.75258370578,0.0
2015-09-28 17:59:00,61,21.7,73,14.5,1034.9,1010.7,-0.3,1.5,3.7,2.8193310588,0.0
2015-09-28 18:59:00,66,21.4,80,13.5,1034.8,1010.6,-0.1,0.7,1.7,1.0,0.0
2015-09-28 19:59:00,68,21.1,83,12.8,1034.7,1010.5,-0.4,1.5,2.7,16.0,0.0
2015-09-28 20:59:00,67,20.9,81,14.6,1034.7,1010.5,-0.2,1.35,4.4,4.64597578136,0.0
2015-09-28 21:59:00,67,20.6,71,15.4,1034.5,1010.3,-0.3,3.2,5.4,5.16458079781,0.0
2015-09-28 22:59:00,67,20.5,71,15.3,1034.4,1010.2,-0.3,3.05,5.1,4.87904999847,0.0
2015-09-28 23:59:00,67,20.3,72,15.0,1034.7,1010.5,0.0,2.4,3.7,5.0,0.0
