2015-08-12 00:17:00,30,76,19.7,87,16.7,1021.1,996.9,1.4,2.0,0,146.7,0
2015-08-12 00:47:00,30,76,19.5,87,16.6,1021.3,997.1,0.3,1.4,2,146.7,0
2015-08-12 01:17:00,30,76,19.5,86,16.6,1021.3,997.1,1.4,2.4,4,146.7,0
2015-08-12 01:47:00,30,76,19.6,87,16.5,1021.1,996.9,0.3,1.0,2,146.7,0
2015-08-12 02:17:00,30,75,19.6,88,16.3,1021.2,997.0,0.7,1.7,2,146.7,0
2015-08-12 02:47:00,30,75,19.6,88,16.2,1021.2,997.0,0.7,1.4,2,146.7,0
2015-08-12 03:17:00,30,76,19.5,89,16.1,1021.1,996.9,0.7,1.4,2,146.7,0
2015-08-12 03:47:00,30,76,19.4,89,16.0,1021.2,997.0,1.0,2.0,2,146.7,0
2015-08-12 04:17:00,30,76,19.4,90,15.9,1021.3,997.1,1.4,2.7,2,146.7,0
2015-08-12 04:47:00,30,76,19.2,90,15.9,1021.4,997.2,1.0,1.7,3,146.7,0
2015-08-12 05:17:00,30,78,18.9,89,16.0,1021.7,997.5,1.4,2.0,2,146.7,0
2015-08-12 05:47:00,30,79,18.7,89,16.0,1021.9,997.7,1.4,2.0,2,146.7,0
2015-08-12 06:17:00,30,80,18.5,89,16.0,1022.3,998.1,1.4,2.0,1,146.7,0
2015-08-12 06:47:00,30,82,18.5,89,16.2,1022.5,998.3,1.0,1.7,1,146.7,0
2015-08-12 07:17:00,30,82,18.5,89,16.4,1022.7,998.5,2.4,3.7,2,146.7,0
2015-08-12 07:47:00,30,79,19.0,88,16.9,1022.5,998.3,3.1,4.8,1,146.7,0
2015-08-12 08:17:00,30,76,19.4,81,17.4,1022.5,998.3,2.4,3.4,2,146.7,0
2015-08-12 08:47:00,30,73,19.3,74,17.7,1022.7,998.5,2.7,3.7,2,146.7,0
2015-08-12 09:17:00,30,72,19.2,73,18.2,1022.8,998.6,2.7,5.4,3,146.7,0
2015-08-12 09:47:00,30,74,19.6,75,18.3,1022.8,998.6,2.4,4.1,2,146.7,0
2015-08-12 10:17:00,30,71,20.0,70,19.2,1022.9,998.7,2.0,4.4,13,146.7,0
2015-08-12 10:47:00,30,71,20.1,71,19.2,1022.9,998.7,2.7,4.1,4,146.7,0
2015-08-12 11:17:00,30,71,20.3,68,20.0,1022.5,998.3,2.7,4.1,8,146.7,0
2015-08-12 11:47:00,30,71,20.7,65,20.8,1022.2,998.0,3.4,4.4,4,146.7,0
2015-08-12 12:17:00,30,69,20.9,63,20.5,1022.2,998.0,4.1,5.8,15,146.7,0
2015-08-12 12:47:00,30,65,21.3,62,20.8,1022.1,997.9,2.4,3.7,5,146.7,0
2015-08-12 13:17:00,30,62,21.5,58,21.4,1022.0,997.8,3.4,5.4,4,146.7,0
2015-08-12 13:47:00,30,63,21.4,61,20.9,1021.9,997.7,2.0,3.7,6,146.7,0
2015-08-12 14:17:00,30,62,21.4,60,20.8,1021.9,997.7,2.0,3.1,8,146.7,0
2015-08-12 14:47:00,30,59,21.5,53,21.3,1021.5,997.3,3.7,5.1,4,146.7,0
2015-08-12 15:17:00,30,59,21.5,51,21.0,1021.5,997.3,2.4,4.1,2,146.7,0
2015-08-12 15:47:00,30,59,21.4,55,20.9,1021.4,997.2,1.4,2.0,2,146.7,0
2015-08-12 16:17:00,30,60,21.5,55,21.7,1021.2,997.0,2.7,4.4,4,146.7,0
2015-08-12 16:47:00,30,59,21.4,55,20.8,1020.8,996.6,1.4,2.7,2,146.7,0
2015-08-12 17:17:00,30,59,21.5,55,20.9,1020.8,996.6,2.0,4.4,0,146.7,0
2015-08-12 17:47:00,30,59,21.3,59,20.1,1020.8,996.6,2.4,4.8,2,146.7,0
2015-08-12 18:17:00,30,61,21.1,65,19.7,1020.9,996.7,2.7,3.7,4,146.7,0
2015-08-12 18:47:00,30,63,20.9,70,18.9,1020.8,996.6,1.4,2.4,2,146.7,0
2015-08-12 19:17:00,30,64,20.9,72,18.4,1020.9,996.7,1.7,2.7,4,146.7,0
2015-08-12 19:47:00,30,65,20.7,75,18.0,1020.9,996.7,2.0,3.4,3,146.7,0
2015-08-12 20:17:00,30,66,20.7,76,17.6,1020.8,996.6,1.4,2.4,2,146.7,0
2015-08-12 20:47:00,30,67,20.5,79,17.2,1020.6,996.4,1.7,3.4,3,146.7,0
2015-08-12 21:17:00,30,67,20.7,80,17.0,1020.7,996.5,1.7,3.1,4,146.7,0
2015-08-12 21:47:00,30,67,20.9,83,16.8,1020.4,996.2,2.0,3.7,4,146.7,0
2015-08-12 22:17:00,30,67,20.9,85,16.7,1020.0,995.8,2.4,3.4,2,146.7,0
2015-08-12 22:47:00,30,66,21.0,88,16.6,1019.7,995.5,1.7,2.7,2,146.7,0
2015-08-12 23:17:00,30,66,21.1,89,16.5,1019.4,995.2,2.0,4.1,2,146.7,0
2015-08-12 23:47:00,30,66,21.1,90,16.6,1019.0,994.8,2.7,4.1,2,146.7,0
