2015-08-27 00:22:00,30,76,20.5,90,15.4,1003.3,979.1,3.4,4.4,12,180.9,0
2015-08-27 00:52:00,30,77,20.5,90,15.4,1003.6,979.4,2.4,4.1,14,180.9,0
2015-08-27 01:22:00,30,77,20.4,91,15.3,1003.4,979.2,3.4,5.8,10,180.9,0
2015-08-27 01:52:00,30,77,20.3,90,15.6,1003.6,979.4,3.4,5.1,14,180.9,0
2015-08-27 02:22:00,30,77,20.2,90,15.4,1003.6,979.4,2.4,3.4,14,180.9,0
2015-08-27 02:52:00,30,77,20.2,90,15.4,1003.4,979.2,4.1,5.1,10,180.9,0
2015-08-27 03:22:00,30,77,20.2,91,15.3,1003.5,979.3,2.7,4.8,10,180.9,0
2015-08-27 03:52:00,30,77,20.2,91,15.3,1003.4,979.2,3.7,5.8,10,180.9,0
2015-08-27 04:22:00,30,77,20.1,90,15.2,1003.5,979.3,2.7,4.4,10,180.9,0
2015-08-27 04:52:00,30,77,20.0,89,15.3,1003.5,979.3,3.7,4.4,15,180.9,0
2015-08-27 05:22:00,30,77,20.0,89,15.1,1003.5,979.3,3.7,5.1,14,180.9,0
2015-08-27 05:52:00,30,78,19.9,87,15.3,1003.8,979.6,2.7,3.7,10,180.9,0
2015-08-27 06:22:00,30,78,19.7,88,15.4,1003.9,979.7,3.1,5.1,10,180.9,0
2015-08-27 06:52:00,30,78,19.7,86,15.7,1003.9,979.7,3.4,5.4,12,180.9,0
2015-08-27 07:22:00,30,78,19.9,85,15.9,1004.3,980.1,3.7,5.1,11,180.9,0
2015-08-27 07:52:00,30,78,19.8,82,16.3,1004.0,979.8,2.7,4.1,12,180.9,0
2015-08-27 08:22:00,30,77,19.8,82,16.5,1004.4,980.2,4.4,5.8,10,180.9,0
2015-08-27 08:52:00,30,78,19.8,82,17.0,1004.2,980.0,4.1,5.1,12,180.9,0
2015-08-27 09:22:00,30,79,19.8,81,17.1,1004.2,980.0,4.8,6.5,10,180.9,0
2015-08-27 09:52:00,30,78,19.8,79,17.3,1004.4,980.2,5.8,6.8,12,180.9,0
2015-08-27 10:22:00,30,78,19.8,78,17.3,1004.4,980.2,5.1,8.2,14,180.9,0
2015-08-27 10:52:00,30,77,19.7,77,17.3,1004.7,980.5,1.7,2.4,14,180.9,0
2015-08-27 11:22:00,30,77,19.7,80,17.3,1004.8,980.6,2.7,3.7,14,180.9,0
2015-08-27 11:52:00,30,77,19.7,73,18.1,1004.8,980.6,2.7,4.4,12,180.9,0
2015-08-27 12:22:00,30,77,19.8,66,18.6,1004.7,980.5,3.1,4.4,8,180.9,0
2015-08-27 12:52:00,30,76,20.0,62,18.8,1005.0,980.8,3.7,5.4,13,180.9,0
2015-08-27 13:22:00,30,75,20.1,64,18.7,1005.4,981.2,3.7,6.8,14,180.9,0
2015-08-27 13:52:00,30,75,20.3,61,19.9,1005.4,981.2,4.1,5.1,10,180.9,0
2015-08-27 14:22:00,30,75,20.6,59,19.9,1005.7,981.5,3.7,4.8,10,180.9,0
2015-08-27 14:52:00,30,75,20.6,60,20.4,1005.5,981.3,4.4,6.5,10,180.9,0
2015-08-27 15:22:00,30,75,20.9,54,21.3,1005.4,981.2,3.7,5.1,12,180.9,0
2015-08-27 15:52:00,30,73,21.0,57,20.7,1005.6,981.4,3.7,6.5,11,180.9,0
2015-08-27 16:22:00,30,74,20.9,60,20.3,1005.5,981.3,3.4,5.8,10,180.9,0
2015-08-27 16:52:00,30,73,20.9,59,20.0,1005.5,981.3,3.7,6.1,14,180.9,0
2015-08-27 17:22:00,30,72,20.9,63,18.8,1005.8,981.6,4.1,5.4,12,180.9,0
2015-08-27 17:52:00,30,72,20.7,68,18.5,1006.0,981.8,4.1,5.4,0,180.9,0
2015-08-27 18:22:00,30,73,20.7,71,18.3,1006.4,982.2,3.1,4.4,0,180.9,0
2015-08-27 18:52:00,30,74,20.7,68,17.0,1006.7,982.5,0.3,1.4,6,180.9,0
2015-08-27 19:22:00,30,73,20.6,74,16.4,1007.2,983.0,1.4,1.7,10,180.9,0
2015-08-27 19:52:00,30,74,20.4,76,16.4,1007.5,983.3,0.7,1.7,9,180.9,0
2015-08-27 20:22:00,30,74,20.4,76,16.5,1007.8,983.6,1.7,2.7,14,180.9,0
2015-08-27 20:52:00,30,75,20.4,81,15.9,1008.3,984.1,2.4,3.7,14,180.9,0
2015-08-27 21:22:00,30,75,20.4,82,15.6,1008.4,984.2,2.4,3.7,14,180.9,0
2015-08-27 21:52:00,30,75,20.3,84,15.3,1009.0,984.8,2.4,3.7,6,180.9,0
2015-08-27 22:22:00,30,75,20.3,85,15.2,1009.0,984.8,1.7,2.7,10,180.9,0
2015-08-27 22:52:00,30,75,20.3,86,15.1,1009.4,985.2,2.7,4.1,0,180.9,0
2015-08-27 23:22:00,30,75,20.2,88,14.8,1009.6,985.4,0.7,1.4,10,180.9,0
2015-08-27 23:52:00,30,75,20.1,89,14.3,1009.8,985.6,2.4,3.7,8,180.9,0
