2015-11-09 00:09:00,30,77,19.7,86,14.4,1015.3,991.1,2.4,5.1,14.0,304.5,0
2015-11-09 00:39:00,30,77,19.6,84,14.3,1015.9,991.7,2.7,5.1,11.0,304.5,0
2015-11-09 01:09:01,30,78,19.4,83,14.4,1016.4,992.2,0.7,2.0,14.0,304.5,0
2015-11-09 01:39:01,30,78,19.4,74,14.3,1017.1,992.9,1.4,3.4,10.0,304.5,0
2015-11-09 02:09:01,30,79,19.3,74,13.3,1017.1,992.9,1.0,1.7,2.0,304.5,0
2015-11-09 02:39:01,30,79,19.2,73,12.4,1017.4,993.2,1.4,2.4,8.0,304.5,0
2015-11-09 03:09:01,30,79,19.1,72,12.2,1017.5,993.3,2.0,3.1,15.0,304.5,0
2015-11-09 03:39:01,30,79,19.0,76,11.7,1018.0,993.8,2.4,3.1,14.0,304.5,0
2015-11-09 04:09:01,30,80,18.9,79,11.6,1018.2,994.0,2.7,4.1,14.0,304.5,0
2015-11-09 04:39:01,30,80,18.8,74,11.3,1017.8,993.6,2.0,3.1,14.0,304.5,0
2015-11-09 05:09:01,30,79,18.8,79,10.7,1018.4,994.2,1.7,3.1,12.0,304.5,0
2015-11-09 05:39:01,30,79,18.6,80,10.6,1018.9,994.7,2.0,3.7,10.0,304.5,0
2015-11-09 06:09:01,30,79,18.5,81,10.8,1019.3,995.1,2.7,4.1,12.0,304.5,0
2015-11-09 06:39:01,30,79,18.4,81,10.8,1019.5,995.3,3.7,4.4,10.0,304.5,0
2015-11-09 07:09:01,30,81,18.8,82,10.9,1020.0,995.8,3.1,5.8,13.0,304.5,0
2015-11-09 07:39:01,30,78,19.5,79,11.1,1020.1,995.9,3.7,6.1,10.0,304.5,0
2015-11-09 08:09:01,30,81,19.9,77,11.3,1019.8,995.6,4.1,6.5,10.0,304.5,0
2015-11-09 08:39:01,30,77,19.8,75,11.5,1020.2,996.0,4.4,7.5,10.0,304.5,0
2015-11-09 09:09:01,30,77,19.7,74,11.8,1020.3,996.1,5.1,7.8,10.0,304.5,0
2015-11-09 09:39:01,30,77,19.7,73,12.3,1020.1,995.9,6.5,8.5,11.0,304.5,0
2015-11-09 10:09:01,30,75,19.8,73,12.4,1019.6,995.4,5.4,7.5,14.0,304.5,0
2015-11-09 10:39:01,30,74,19.8,73,12.4,1019.6,995.4,3.7,5.4,10.0,304.5,0
2015-11-09 11:10:01,31,74,19.6,73,13.0,1019.4,995.2,3.7,6.8,13.0,304.5,0
2015-11-09 11:40:01,30,73,19.4,72,13.3,1019.3,995.1,3.7,6.1,12.0,304.5,0
2015-11-09 12:10:01,30,73,19.2,71,13.8,1019.3,995.1,2.7,4.8,14.0,304.5,0
2015-11-09 12:40:01,30,72,19.0,67,14.2,1019.3,995.1,3.1,5.1,2.0,304.5,0
2015-11-09 13:10:01,30,73,18.9,71,14.2,1018.9,994.7,4.4,6.5,12.0,304.5,0
2015-11-09 13:40:01,30,73,18.8,71,14.3,1018.7,994.5,4.8,6.8,14.0,304.5,0
2015-11-09 14:10:01,30,73,18.7,72,14.5,1019.0,994.8,3.4,5.1,10.0,304.5,0
2015-11-09 14:40:01,30,73,18.7,69,15.4,1018.6,994.4,3.7,5.4,10.0,304.5,0
2015-11-09 15:10:01,30,73,18.8,72,14.7,1018.6,994.4,4.8,6.5,12.0,304.5,0
2015-11-09 15:40:01,30,72,18.7,72,14.5,1018.3,994.1,5.4,7.8,10.0,304.5,0
2015-11-09 16:10:01,30,72,18.5,74,14.3,1018.1,993.9,6.1,8.5,10.0,304.5,0
2015-11-09 16:40:01,30,73,18.4,75,14.2,1018.0,993.8,5.8,10.2,11.0,304.5,0
2015-11-09 17:10:01,30,74,18.8,76,14.2,1017.7,993.5,6.8,9.2,10.0,304.5,0
2015-11-09 17:40:01,30,72,19.4,76,14.2,1017.9,993.7,7.8,9.5,10.0,304.5,0
2015-11-09 18:10:01,30,72,19.6,77,14.2,1017.6,993.4,6.1,8.8,11.0,304.5,0
2015-11-09 18:40:01,30,72,19.6,78,14.2,1018.0,993.8,6.1,9.2,12.0,304.5,0
2015-11-09 19:10:01,30,72,19.6,79,14.2,1018.3,994.1,4.8,7.1,14.0,304.5,0
2015-11-09 19:40:01,30,75,19.6,81,14.3,1017.8,993.6,6.8,9.5,14.0,304.5,0
2015-11-09 20:10:01,30,76,19.8,81,14.3,1018.1,993.9,3.7,5.4,,304.5,2048
2015-11-09 20:40:01,30,76,19.9,81,14.4,1018.3,994.1,2.4,4.4,10.0,304.5,0
2015-11-09 21:10:01,30,75,19.8,82,14.4,1018.2,994.0,3.4,5.1,10.0,304.5,0
2015-11-09 21:40:01,30,75,19.8,82,14.4,1018.5,994.3,4.8,6.8,11.0,304.5,0
2015-11-09 22:10:01,30,75,19.8,83,14.5,1018.7,994.5,4.1,6.1,12.0,304.5,0
2015-11-09 22:40:01,30,75,19.7,83,14.7,1018.6,994.4,2.4,3.7,10.0,304.5,0
2015-11-09 23:10:01,30,76,19.6,83,14.7,1018.9,994.7,4.8,7.8,10,304.5,0
2015-11-09 23:40:01,30,75,19.5,83,14.7,1018.7,994.5,3.4,5.8,8,304.5,0
