2015-10-23 00:05:00,30,67,19.2,86,7.7,1020.6,0,0,8,278.1,0
2015-10-23 00:35:00,30,67,19.1,86,7.7,1020.8,0,0.3,4,278.1,0
2015-10-23 01:05:00,30,69,18.8,85,7.7,1020.7,0,0.3,2,278.1,0
2015-10-23 01:35:00,30,69,18.6,84,7.5,1021.1,0,0,8,278.1,0
2015-10-23 02:05:00,30,70,18.4,85,6.9,1020.7,0,0,6,278.1,0
2015-10-23 02:35:00,30,70,18.3,86,6.8,1020.8,0,0,6,278.1,0
2015-10-23 03:05:00,30,70,18.1,88,7.9,1021.0,0,0.7,8,278.1,0
2015-10-23 03:35:00,30,71,18.0,88,8.3,1020.6,0,0,8,278.1,0
2015-10-23 04:05:00,30,71,17.9,87,8.4,1020.6,0,0,8,278.1,0
2015-10-23 04:35:00,30,71,17.8,87,8.5,1020.7,0,0,8,278.1,0
2015-10-23 05:05:00,30,71,17.6,85,9.5,1020.8,0,0.3,14,278.1,0
2015-10-23 05:35:00,30,71,17.6,82,9.7,1021.2,0.7,1.4,8,278.1,0
2015-10-23 06:05:00,30,73,17.7,79,10.3,1021.0,0.7,1.4,10,278.1,0
2015-10-23 06:35:00,30,73,18.3,78,10.4,1021.1,0,0.3,8,278.1,0
2015-10-23 07:05:00,30,72,18.6,81,10.0,1021.0,0,0,6,278.1,0
2015-10-23 07:35:00,30,74,18.7,86,9.9,1020.9,0,0,6,278.1,0
2015-10-23 08:05:00,30,73,18.7,85,10.2,1021.3,0,0,8,278.1,0
2015-10-23 08:35:00,30,73,18.8,77,11.1,1021.2,0.7,1.0,8,278.1,0
2015-10-23 09:05:00,30,72,18.9,77,11.7,1021.1,0,0,8,278.1,0
2015-10-23 09:35:00,30,71,19.0,76,12.6,1020.8,0,0,8,278.1,0
2015-10-23 10:05:00,30,71,19.0,73,12.6,1020.7,1.7,2.7,10,278.1,0
2015-10-23 10:35:00,30,72,18.9,70,13.3,1020.6,1.0,1.7,10,278.1,0
2015-10-23 11:05:00,30,71,18.8,64,13.4,1020.2,1.4,2.0,12,278.1,0
2015-10-23 11:35:00,30,71,18.8,62,14.0,1020.1,1.7,2.4,12,278.1,0
2015-10-23 12:05:00,30,70,18.7,61,14.1,1020.1,2.0,2.7,10,278.1,0
2015-10-23 12:35:00,30,70,18.7,63,13.8,1019.5,2.0,2.7,12,278.1,0
2015-10-23 13:05:00,30,70,18.6,65,13.8,1019.4,2.0,2.7,11,278.1,0
2015-10-23 13:35:00,30,69,18.5,64,13.8,1019.3,2.0,2.4,10,278.1,0
2015-10-23 14:05:00,30,69,18.4,63,13.6,1018.9,1.0,1.7,10,278.1,0
2015-10-23 14:35:00,30,68,18.4,71,13.5,1018.6,1.4,2.0,10,278.1,0
2015-10-23 15:05:00,30,68,18.3,68,13.3,1018.4,1.4,2.0,10,278.1,0
2015-10-23 15:35:00,30,68,18.3,71,13.1,1018.4,1.4,2.4,12,278.1,0
2015-10-23 16:05:00,30,70,18.4,69,13.1,1018.2,1.7,2.4,10,278.1,0
2015-10-23 16:35:00,30,69,19.0,70,12.6,1018.0,0.3,0.7,6,278.1,0
2015-10-23 17:05:00,30,68,19.1,74,12.6,1018.0,1.0,1.4,9,278.1,0
2015-10-23 17:35:00,30,69,19.1,79,12.6,1018.0,0.7,1.4,11,278.1,0
2015-10-23 18:05:00,30,68,19.1,79,12.5,1017.7,1.7,2.4,12,278.1,0
2015-10-23 18:35:00,30,69,19.1,79,12.6,1017.6,1.4,1.7,10,278.1,0
2015-10-23 19:05:00,30,70,19.2,81,12.3,1017.6,2.4,2.7,10,278.1,0
2015-10-23 19:35:00,30,73,19.2,75,12.6,1017.5,2.0,2.7,10,278.1,0
2015-10-23 20:05:00,30,72,19.4,78,12.4,1017.2,3.4,4.8,14,278.1,0
2015-10-23 20:35:00,30,71,19.3,71,12.5,1016.9,2.0,2.4,14,278.1,0
2015-10-23 21:05:00,30,70,19.3,73,12.4,1016.9,2.0,2.7,10,278.1,0
2015-10-23 21:35:00,30,69,19.3,74,12.3,1016.7,2.0,2.7,14,278.1,0
2015-10-23 22:05:00,30,69,19.2,75,12.2,1016.7,1.7,2.4,10,278.1,0
2015-10-23 22:35:00,30,69,19.0,76,12.2,1016.4,2.0,2.7,12,278.1,0
2015-10-23 23:05:00,30,70,18.8,77,12.1,1016.2,2.0,2.7,11,278.1,0
2015-10-23 23:35:00,30,71,18.8,77,12.0,1015.6,2.4,4.1,10,278.1,0
