2015-09-19 00:27:00,30,75,18.0,98,11.6,1017.2,0.7,2.0,6,235.8,0
2015-09-19 00:57:00,30,75,18.0,98,11.4,1017.4,0,0.3,6,235.8,0
2015-09-19 01:27:00,30,76,17.8,98,11.3,1017.7,1.4,2.4,2,235.8,0
2015-09-19 01:57:00,30,76,17.8,98,11.1,1018.0,0,0.7,2,235.8,0
2015-09-19 02:27:00,30,76,17.7,99,10.9,1018.4,0.3,0.7,2,235.8,0
2015-09-19 02:57:00,30,76,17.6,98,11.0,1018.4,0,0.7,0,235.8,0
2015-09-19 03:27:00,30,76,17.6,99,10.9,1018.8,0.7,1.4,4,235.8,0
2015-09-19 03:57:00,30,76,17.5,98,11.0,1018.9,0.3,1.0,4,235.8,0
2015-09-19 04:27:00,30,77,17.4,98,11.1,1019.4,0,0.7,0,235.8,0
2015-09-19 04:57:00,30,77,17.3,99,10.8,1019.6,0.7,1.0,2,235.8,0
2015-09-19 05:27:00,30,77,17.2,99,10.7,1020.0,0.3,1.0,2,235.8,0
2015-09-19 05:57:00,30,77,17.1,99,10.8,1020.6,0.3,1.4,2,235.8,0
2015-09-19 06:27:00,30,78,17.3,98,11.9,1021.1,0.7,1.0,10,236.1,0
2015-09-19 06:57:00,30,78,17.6,96,13.7,1021.6,0.7,1.4,5,236.1,0
2015-09-19 07:27:00,30,77,18.0,86,14.9,1022.0,0.7,1.7,5,236.1,0
2015-09-19 07:57:00,30,79,18.8,79,15.7,1022.3,1.0,1.4,15,236.1,0
2015-09-19 08:27:00,30,76,19.8,71,17.4,1022.5,1.7,2.4,4,236.1,0
2015-09-19 08:57:00,30,74,20.6,67,19.1,1022.8,0.3,1.4,8,236.1,0
2015-09-19 09:27:00,30,71,21.3,65,18.7,1023.1,1.4,2.7,1,236.1,0
2015-09-19 09:57:00,30,70,21.9,61,19.6,1023.0,0.7,1.4,3,236.1,0
2015-09-19 10:27:00,30,69,22.4,55,19.4,1023.2,0.7,1.4,6,236.1,0
2015-09-19 10:57:00,30,68,23.0,52,21.5,1023.6,1.4,2.0,5,236.1,0
2015-09-19 11:27:00,30,67,23.6,49,21.5,1023.7,2.0,3.1,0,236.1,0
2015-09-19 11:57:00,30,66,23.9,47,22.0,1023.9,1.4,2.7,2,236.1,0
2015-09-19 12:27:00,30,64,24.1,53,19.2,1023.9,0.3,1.4,8,236.1,0
2015-09-19 12:57:00,30,64,24.3,48,21.3,1023.9,0.7,2.4,2,236.1,0
2015-09-19 13:27:00,30,63,24.4,43,22.7,1024.0,0.3,2.0,2,236.1,0
2015-09-19 13:57:00,30,62,24.3,43,23.1,1023.8,0.7,1.4,2,236.1,0
2015-09-19 14:27:00,30,62,23.9,45,22.3,1024.0,0.3,1.0,5,236.1,0
2015-09-19 14:57:00,30,61,23.6,47,21.4,1024.0,0.3,1.0,8,236.1,0
2015-09-19 15:27:00,30,60,23.3,55,18.2,1024.0,1.4,1.7,2,236.1,0
2015-09-19 15:57:00,30,60,22.9,56,18.0,1024.2,0.3,1.4,2,236.1,0
2015-09-19 16:27:00,30,60,22.7,60,17.0,1024.4,0,0.7,2,236.1,0
2015-09-19 16:57:00,30,60,22.4,56,18.4,1024.6,1.7,2.0,2,236.1,0
2015-09-19 17:27:00,30,60,22.2,60,16.8,1024.7,0.3,1.0,2,236.1,0
2015-09-19 17:57:00,30,62,21.8,65,15.9,1024.5,0,0,4,236.1,0
2015-09-19 18:27:00,30,62,21.6,71,14.7,1024.8,0,0.3,4,236.1,0
2015-09-19 18:57:00,30,63,21.4,72,14.0,1025.0,0,0.3,2,236.1,0
2015-09-19 19:27:00,30,64,21.1,72,13.8,1025.2,0.7,1.0,2,236.1,0
2015-09-19 19:57:00,30,65,20.9,73,13.6,1025.4,0,0.7,2,236.1,0
2015-09-19 20:27:00,30,66,20.6,74,13.6,1025.5,0.3,1.0,2,236.1,0
2015-09-19 20:57:00,30,67,20.6,78,12.3,1025.8,0,0.3,4,236.1,0
2015-09-19 21:27:00,30,68,20.6,83,11.7,1025.8,0,0.3,2,236.1,0
2015-09-19 21:57:00,30,69,20.4,86,11.6,1025.7,0,0.3,2,236.1,0
2015-09-19 22:27:00,30,70,20.3,89,11.3,1025.5,0,0.3,2,236.1,0
2015-09-19 22:57:00,30,70,20.2,90,10.9,1025.5,0,0,4,236.1,0
2015-09-19 23:27:00,30,71,20.1,90,10.7,1025.4,0,0,4,236.1,0
2015-09-19 23:57:00,30,71,20.0,90,10.4,1025.4,0,0,4,236.1,0
