2015-09-25 00:28:00,30,73,18.7,91,10.8,1017.1,0.3,0.7,5,263.4,0
2015-09-25 00:58:00,30,74,18.7,91,10.5,1017.2,0,0.7,8,263.4,0
2015-09-25 01:28:00,30,74,18.5,92,10.4,1017.3,0.7,1.7,8,263.4,0
2015-09-25 01:58:00,30,74,18.5,92,10.3,1017.4,1.0,2.0,14,263.4,0
2015-09-25 02:28:00,30,74,18.4,92,10.1,1017.3,0.7,1.4,5,263.4,0
2015-09-25 02:58:00,30,74,18.2,94,9.9,1017.3,1.0,1.7,2,263.4,0
2015-09-25 03:28:00,30,75,18.1,95,9.5,1017.5,1.4,1.7,15,263.4,0
2015-09-25 03:58:00,30,75,18.0,96,9.3,1017.7,0.3,1.0,3,263.4,0
2015-09-25 04:28:00,30,75,17.9,97,9.3,1018.0,0.3,0.7,12,263.4,0
2015-09-25 04:58:00,30,75,17.8,97,9.2,1018.1,0,0.7,4,263.4,0
2015-09-25 05:28:00,30,75,17.7,98,8.7,1018.4,0,0.3,4,263.4,0
2015-09-25 05:58:00,30,75,17.6,98,8.7,1018.9,0,0.3,6,263.4,0
2015-09-25 06:28:00,30,76,17.6,96,10.8,1019.6,1.0,1.7,12,263.4,0
2015-09-25 06:58:00,30,77,17.9,84,13.1,1019.9,0.7,1.0,14,263.4,0
2015-09-25 07:28:00,30,78,18.4,73,14.3,1019.9,0.3,0.7,2,263.4,0
2015-09-25 07:58:00,30,76,18.9,73,15.7,1020.3,0.3,0.7,12,263.4,0
2015-09-25 08:28:00,30,73,19.3,67,15.9,1020.6,0.7,1.0,6,263.4,0
2015-09-25 08:58:00,30,71,20.0,59,18.2,1020.9,0.3,1.0,6,263.4,0
2015-09-25 09:28:00,30,71,20.6,52,20.5,1021.0,0.7,1.4,2,263.4,0
2015-09-25 09:58:00,30,69,21.5,50,21.0,1021.0,0.7,1.7,4,263.4,0
2015-09-25 10:28:00,30,66,22.1,51,20.9,1020.8,0.7,1.7,2,263.4,0
2015-09-25 10:58:00,30,64,22.4,52,19.6,1020.9,0.3,1.0,4,263.4,0
2015-09-25 11:28:00,30,63,22.4,47,20.6,1021.0,0.7,1.7,6,263.4,0
2015-09-25 11:58:00,30,62,22.5,47,20.5,1021.1,1.0,2.0,2,263.4,0
2015-09-25 12:28:00,30,61,22.4,41,20.7,1021.1,0.3,1.0,4,263.4,0
2015-09-25 12:58:00,30,60,22.4,43,20.4,1021.4,0.3,1.0,5,263.4,0
2015-09-25 13:28:00,30,59,22.2,44,18.6,1021.3,0,0.3,4,263.4,0
2015-09-25 13:58:00,30,60,22.2,35,22.2,1021.4,0.7,1.4,2,263.4,0
2015-09-25 14:28:00,30,59,22.2,37,21.0,1021.3,0,0.3,2,263.4,0
2015-09-25 14:58:00,30,60,21.9,44,18.8,1021.6,1.0,2.0,2,263.4,0
2015-09-25 15:28:00,30,59,21.6,51,17.3,1021.5,0.3,1.4,2,263.4,0
2015-09-25 15:58:00,30,59,21.4,50,18.7,1021.8,0.7,1.4,4,263.4,0
2015-09-25 16:28:00,30,59,21.2,48,19.2,1022.1,0,0,4,263.4,0
2015-09-25 16:58:00,30,59,21.0,50,16.9,1022.2,0,0,4,263.4,0
2015-09-25 17:28:00,30,60,20.6,56,15.4,1022.4,0,0.7,4,263.4,0
2015-09-25 17:58:00,30,60,20.6,62,13.1,1022.7,0,0,4,263.4,0
2015-09-25 18:28:00,30,60,20.4,68,12.2,1023.0,0,0,4,263.4,0
2015-09-25 18:58:00,30,63,20.2,73,11.9,1023.5,0,0,4,263.4,0
2015-09-25 19:28:00,30,63,20.0,74,11.9,1023.8,0,0.3,3,263.4,0
2015-09-25 19:58:00,30,64,19.9,76,11.5,1024.0,0,0.3,4,263.4,0
2015-09-25 20:28:00,30,65,19.8,77,11.2,1024.2,0,0,2,263.4,0
2015-09-25 20:58:00,30,66,19.7,77,11.2,1024.1,0.3,1.0,2,263.4,0
2015-09-25 21:28:00,30,66,19.6,80,10.9,1024.2,0,0.3,2,263.4,0
2015-09-25 21:58:00,30,67,19.4,80,10.8,1024.6,0.3,0.7,4,263.4,0
2015-09-25 22:28:00,30,67,19.3,81,10.5,1024.8,0.3,0.7,2,263.4,0
2015-09-25 22:58:00,30,68,19.2,81,10.4,1024.8,0.3,1.0,2,263.4,0
2015-09-25 23:28:00,30,68,19.1,81,10.2,1024.8,0.7,1.4,2,263.4,0
2015-09-25 23:58:00,30,70,18.9,81,10.0,1025.0,0.7,1.4,0,263.4,0
