2015-09-02 00:23:00,30,75,19.7,93,12.1,1016.7,0,0,4,194.7,0
2015-09-02 00:53:00,30,75,19.6,93,12.0,1016.7,0.3,1.0,4,194.7,0
2015-09-02 01:23:00,30,76,19.6,94,11.5,1016.5,0,0.3,2,194.7,0
2015-09-02 01:53:00,30,76,19.5,94,11.2,1016.1,0,0.3,4,194.7,0
2015-09-02 02:23:00,30,76,19.5,95,11.2,1015.9,0,0.3,2,194.7,0
2015-09-02 02:53:00,30,76,19.3,95,11.1,1015.8,0,0.3,2,194.7,0
2015-09-02 03:23:00,30,77,19.3,95,10.9,1015.6,0,0.3,2,194.7,0
2015-09-02 03:53:00,30,77,19.2,94,10.4,1015.7,0,0,4,194.7,0
2015-09-02 04:23:00,30,77,19.2,94,10.0,1015.6,0,0,2,194.7,0
2015-09-02 04:53:00,30,77,19.1,95,10.1,1015.7,0,0.7,2,194.7,0
2015-09-02 05:23:00,30,77,19.0,95,10.1,1015.8,0,0.7,2,195.0,0
2015-09-02 05:53:00,30,77,19.0,94,12.9,1015.7,0,0,4,195.0,0
2015-09-02 06:23:00,30,77,19.2,84,16.1,1015.9,0,0.3,4,195.0,0
2015-09-02 06:53:00,30,76,19.4,72,17.3,1015.7,0,0.3,6,195.0,0
2015-09-02 07:23:00,30,76,19.9,66,18.9,1015.7,0,0.3,6,195.0,0
2015-09-02 07:53:00,30,74,20.4,66,18.7,1015.7,0.3,1.4,6,195.0,0
2015-09-02 08:23:00,30,73,21.0,61,20.0,1015.7,0,0.3,2,195.0,0
2015-09-02 08:53:00,30,73,21.7,55,21.3,1016.0,0.3,1.0,4,195.0,0
2015-09-02 09:23:00,30,71,22.3,53,21.2,1015.9,0.7,1.0,10,195.0,0
2015-09-02 09:53:00,30,70,22.9,50,22.0,1016.0,0,0.3,6,195.0,0
2015-09-02 10:23:00,30,68,24.0,53,20.9,1015.8,0.7,1.7,8,195.0,0
2015-09-02 10:53:00,30,66,24.3,51,21.0,1015.5,0.3,1.0,11,195.0,0
2015-09-02 11:23:00,30,64,24.3,55,19.9,1015.7,0.7,1.4,6,195.0,0
2015-09-02 11:53:00,30,63,24.2,52,20.0,1015.3,0.7,1.4,6,195.0,0
2015-09-02 12:23:00,30,63,24.7,44,22.2,1015.0,1.0,1.4,8,195.0,0
2015-09-02 12:53:00,30,61,25.0,38,23.1,1015.0,1.7,2.4,12,195.0,0
2015-09-02 13:23:00,30,61,25.0,61,19.5,1015.2,0,1.0,6,195.3,0
2015-09-02 13:53:00,30,62,24.3,77,14.9,1015.1,1.0,1.7,12,199.2,0
2015-09-02 14:23:00,30,63,23.9,71,16.5,1014.9,0.3,1.0,2,199.5,0
2015-09-02 14:53:00,30,63,24.0,58,18.6,1015.0,1.0,2.0,2,199.5,0
2015-09-02 15:23:00,30,64,23.6,82,14.1,1015.0,1.0,1.7,5,202.2,0
2015-09-02 15:53:00,30,64,23.4,57,17.7,1014.8,1.4,2.0,6,202.2,0
2015-09-02 16:23:00,30,64,23.3,62,17.0,1014.8,1.0,1.7,8,202.2,0
2015-09-02 16:53:00,30,65,23.0,58,17.7,1014.8,0.7,1.4,6,202.2,0
2015-09-02 17:23:00,30,65,22.8,62,16.0,1014.6,1.4,1.7,10,202.2,0
2015-09-02 17:53:00,30,65,22.5,65,15.5,1014.7,0.3,0.7,6,202.2,0
2015-09-02 18:23:00,30,66,22.3,66,15.3,1014.8,0,1.0,8,202.2,0
2015-09-02 18:53:00,30,67,22.0,71,15.1,1014.8,1.0,1.7,8,202.2,0
2015-09-02 19:23:00,30,69,21.8,71,15.2,1014.9,1.0,1.7,9,202.2,0
2015-09-02 19:53:00,30,69,21.7,75,15.0,1015.1,1.0,1.7,12,202.2,0
2015-09-02 20:23:00,30,69,21.6,76,14.9,1014.9,1.0,1.7,10,202.2,0
2015-09-02 20:53:00,30,69,21.4,72,14.7,1014.8,0,0,4,202.2,0
2015-09-02 21:23:00,30,70,21.3,82,13.2,1014.6,0,0,3,202.2,0
2015-09-02 21:53:00,30,70,21.2,84,12.8,1014.3,0.3,0.7,4,202.2,0
2015-09-02 22:23:00,30,71,21.0,86,13.2,1014.3,0,0,4,202.2,0
2015-09-02 22:53:00,30,72,21.0,88,12.9,1014.4,0.3,1.7,5,202.2,0
2015-09-02 23:23:00,30,73,20.9,89,11.9,1014.0,0,0.7,2,202.2,0
2015-09-02 23:53:00,30,73,20.7,90,11.6,1014.1,0,0.3,6,202.2,0
