2015-09-15 00:26:00,30,72,18.4,78,12.6,994.3,5.8,7.1,13,210.9,0
2015-09-15 00:56:00,30,72,18.3,80,12.2,994.0,5.1,6.8,14,210.9,0
2015-09-15 01:26:00,30,71,18.2,82,12.2,993.8,5.4,6.8,10,210.9,0
2015-09-15 01:56:00,30,71,18.1,83,12.1,993.6,5.4,6.8,8,210.9,0
2015-09-15 02:26:00,30,71,18.0,82,12.0,993.5,6.1,7.5,13,210.9,0
2015-09-15 02:56:00,30,70,17.9,83,11.8,993.2,5.8,8.5,14,210.9,0
2015-09-15 03:26:00,30,71,17.8,83,11.8,993.0,5.8,7.1,10,210.9,0
2015-09-15 03:56:00,30,71,17.7,83,11.5,992.4,4.8,6.5,10,210.9,0
2015-09-15 04:26:00,30,70,17.6,83,11.5,992.3,4.8,6.5,13,210.9,0
2015-09-15 04:56:00,30,70,17.5,85,11.7,992.2,5.4,7.1,11,210.9,0
2015-09-15 05:26:00,30,70,17.5,83,11.8,992.0,5.1,6.5,10,210.9,0
2015-09-15 05:56:00,30,70,17.4,85,11.9,991.8,4.8,5.8,10,210.9,0
2015-09-15 06:26:00,30,71,17.3,85,11.9,991.7,4.8,7.1,10,210.9,0
2015-09-15 06:56:00,30,70,17.3,82,12.0,991.6,5.4,7.5,14,210.9,0
2015-09-15 07:26:00,30,73,17.3,91,11.4,991.3,4.8,6.8,10,210.9,0
2015-09-15 07:56:00,30,73,17.3,95,11.4,991.3,4.4,5.8,10,210.9,0
2015-09-15 08:26:00,30,73,17.2,96,11.7,991.5,2.0,3.1,12,210.9,0
2015-09-15 08:56:00,30,72,17.2,92,12.5,991.7,3.1,5.8,12,210.9,0
2015-09-15 09:26:00,30,73,17.2,90,12.9,992.1,3.1,5.4,14,210.9,0
2015-09-15 09:56:00,30,73,17.3,88,13.1,992.4,2.4,3.7,12,210.9,0
2015-09-15 10:26:00,30,73,17.3,87,13.6,992.9,2.4,3.7,14,210.9,0
2015-09-15 10:56:00,30,73,17.3,82,13.9,993.5,1.7,2.7,14,210.9,0
2015-09-15 11:26:00,30,72,17.4,79,14.9,993.9,2.0,3.1,0,210.9,0
2015-09-15 11:56:00,30,73,17.8,69,17.1,994.4,4.8,5.4,10,210.9,0
2015-09-15 12:26:00,30,74,18.5,69,18.1,994.7,2.7,5.1,12,210.9,0
2015-09-15 12:56:00,30,73,19.0,68,18.0,994.8,1.7,2.7,14,210.9,0
2015-09-15 13:26:00,30,73,18.7,85,15.9,994.9,2.4,4.1,0,210.9,0
2015-09-15 13:56:00,30,73,18.7,83,16.3,994.9,2.4,4.8,8,211.2,0
2015-09-15 14:26:00,30,73,18.7,79,16.9,995.0,3.4,5.4,12,211.2,0
2015-09-15 14:56:00,30,72,18.6,82,16.3,995.3,1.7,3.1,10,211.2,0
2015-09-15 15:26:00,30,72,18.6,77,17.6,995.5,2.0,3.1,11,211.2,0
2015-09-15 15:56:00,30,72,18.4,85,16.2,995.7,0.7,1.7,8,211.5,0
2015-09-15 16:26:00,30,73,18.3,90,15.0,995.7,0,0.3,4,214.8,0
2015-09-15 16:56:00,30,73,18.2,79,16.0,996.0,4.1,6.1,14,215.1,0
2015-09-15 17:26:00,30,73,18.2,74,16.1,996.0,2.4,4.4,10,215.1,0
2015-09-15 17:56:00,30,73,18.2,77,15.7,996.1,4.1,5.4,0,215.1,0
2015-09-15 18:26:00,30,73,18.0,80,15.2,996.4,3.1,4.4,12,215.1,0
2015-09-15 18:56:00,30,74,18.0,83,14.4,996.3,2.7,3.7,12,215.1,0
2015-09-15 19:26:00,30,74,17.9,85,13.9,996.8,3.4,5.4,10,215.1,0
2015-09-15 19:56:00,30,74,17.8,85,13.7,996.8,3.7,4.8,10,215.1,0
2015-09-15 20:26:00,30,74,17.8,86,13.6,996.7,3.4,4.8,12,215.1,0
2015-09-15 20:56:00,30,73,17.7,85,13.6,996.4,2.7,4.1,14,215.1,0
2015-09-15 21:26:00,30,73,17.6,86,13.7,996.1,2.7,3.4,12,215.1,0
2015-09-15 21:56:00,30,73,17.6,89,13.1,995.9,2.4,3.4,10,215.1,0
2015-09-15 22:26:00,30,73,17.5,90,13.1,995.6,2.4,3.1,10,215.1,0
2015-09-15 22:56:00,30,73,17.5,92,13.1,995.2,1.4,2.0,10,215.1,0
2015-09-15 23:26:00,30,74,17.4,92,13.1,994.8,1.4,2.0,10,215.1,0
2015-09-15 23:56:00,30,74,17.3,92,13.6,994.0,0.7,1.4,9,215.1,0
