2015-12-09 00:47:01,75,18.5,81,7.0,1028.7,1004.5,3.6,0.85,1.7,0.444799102286,0.0
2015-12-09 01:47:01,75,18.1,80,6.6,1029.8,1005.6,2.8,1.0,2.0,14.0,0.0
2015-12-09 02:47:01,75,17.7,83,6.2,1030.5,1006.3,2.9,1.35,3.7,13.2568586091,0.0
2015-12-09 03:47:01,75,17.4,86,5.5,1030.8,1006.6,2.1,1.2,2.0,12.4205476537,0.0
2015-12-09 04:47:01,75,17.1,88,5.0,1031.7,1007.5,1.9,0.7,1.4,15.0,0.0
2015-12-09 05:47:01,76,16.7,90,5.0,1032.0,1007.8,1.5,1.05,2.4,12.0,0.0
2015-12-09 06:47:00,77,16.5,88,5.8,1032.6,1008.4,1.8,1.7,3.4,8.44479910229,0.0
2015-12-09 07:47:00,79,17.4,86,5.9,1033.0,1008.8,1.3,2.05,3.4,11.4135531434,0.0
2015-12-09 08:47:00,76,18.2,78,7.3,1033.3,1009.1,1.3,2.4,4.1,13.0,0.0
2015-12-09 09:47:00,78,19.3,72,8.8,1033.2,1009.0,0.6,3.4,4.8,12.3500409764,0.0
2015-12-09 10:47:00,74,20.0,66,11.0,1033.8,1009.6,0.8,2.85,4.8,14.6508923605,0.0
2015-12-09 11:47:00,73,20.5,66,11.3,1033.1,1008.9,-0.2,2.85,4.8,10.7380880257,0.0
2015-12-09 12:47:00,73,21.3,65,11.8,1032.6,1008.4,-0.6,4.05,6.1,12.8275339448,0.0
2015-12-09 13:47:00,60,26.1,65,12.0,1031.8,1007.6,-2.0,3.1,4.4,14.0,0.0
2015-12-09 14:47:00,54,25.9,67,11.6,1031.1,1006.9,-2.0,3.7,5.1,9.5,0.0
2015-12-09 15:47:00,61,21.9,73,10.5,1030.7,1006.5,-1.9,3.4,5.8,11.1518756212,0.0
2015-12-09 16:47:00,64,20.1,78,10.0,1030.6,1006.4,-1.2,5.1,6.8,12.1496204739,0.0
2015-12-09 17:47:00,68,19.8,75,10.0,1030.6,1006.4,-0.5,4.8,6.5,13.0,0.0
2015-12-09 18:47:00,69,19.6,78,9.5,1030.6,1006.4,-0.1,4.25,6.5,12.3277229494,0.0
2015-12-09 19:47:00,69,19.6,78,9.3,1029.9,1005.7,-0.7,4.6,6.1,10.7336819913,0.0
2015-12-09 20:47:00,69,19.5,78,9.9,1029.4,1005.2,-1.2,4.25,6.1,8.86362877613,0.0
2015-12-09 21:47:00,69,19.4,77,10.5,1028.6,1004.4,-2.0,5.1,6.8,11.1851880913,0.0
2015-12-09 22:47:00,70,19.0,78,10.7,1028.8,1004.6,-1.1,6.1,8.5,12.0,0.0
2015-12-09 23:47:00,73,18.7,76,10.9,1028.4,1004.2,-1.0,4.9,8.5,15.2574343845,0.0
