2015-11-27 00:14:00,30,66,19.3,91,9.0,1017.5,2.0,3.1,10,336.0,0
2015-11-27 00:44:00,30,67,19.0,91,9.1,1016.9,2.4,3.4,12,336.0,0
2015-11-27 01:14:00,30,68,18.8,91,8.9,1016.8,1.4,2.0,12,336.0,0
2015-11-27 01:44:00,30,70,18.6,92,8.9,1016.4,1.7,2.4,14,336.0,0
2015-11-27 02:14:01,30,70,18.4,90,9.0,1016.0,2.0,2.7,13,336.0,0
2015-11-27 02:44:01,30,70,18.2,90,9.1,1015.7,2.0,2.7,14,336.0,0
2015-11-27 03:14:01,30,70,18.1,89,9.2,1015.0,1.4,2.4,12,336.0,0
2015-11-27 03:44:01,30,70,17.9,88,9.3,1014.8,2.4,3.4,10,336.0,0
2015-11-27 04:14:01,30,71,17.8,87,9.4,1014.4,2.0,2.7,10,336.0,0
2015-11-27 04:44:01,30,71,17.7,88,9.5,1013.9,3.1,3.7,12,336.0,0
2015-11-27 05:14:01,30,72,17.6,88,9.6,1013.7,2.7,3.4,14,336.0,0
2015-11-27 05:44:01,30,72,17.5,89,9.5,1013.3,3.1,4.4,10,336.0,0
2015-11-27 06:14:01,30,72,17.4,90,9.5,1012.9,2.7,3.4,12,336.0,0
2015-11-27 06:44:01,30,72,17.3,91,9.4,1012.6,2.7,3.4,11,336.0,0
2015-11-27 07:14:01,30,74,17.6,91,9.5,1012.5,2.7,4.1,11,336.0,0
2015-11-27 07:44:01,30,74,18.2,91,9.7,1012.3,3.7,4.8,10,336.0,0
2015-11-27 08:14:01,30,75,18.9,92,9.6,1012.0,2.4,3.7,10,336.0,0
2015-11-27 08:44:01,30,73,19.0,93,9.6,1011.7,2.0,3.7,12,336.0,0
2015-11-27 09:14:01,30,72,19.2,91,10.1,1011.3,3.1,4.4,10,336.0,0
2015-11-27 09:44:01,30,71,19.3,90,10.6,1010.9,4.8,6.1,13,336.0,0
2015-11-27 10:14:01,30,71,19.5,89,10.9,1010.5,3.4,4.8,10,336.0,0
2015-11-27 10:44:01,30,70,19.4,87,11.1,1009.9,5.1,7.5,,336.0,2048
2015-11-27 11:14:01,30,70,19.3,88,11.2,1009.1,6.1,7.5,14,336.0,0
2015-11-27 11:44:01,30,70,19.0,89,11.2,1008.6,4.4,6.8,10,336.0,0
2015-11-27 12:14:01,30,71,18.8,89,11.4,1007.8,3.7,5.4,9,336.0,0
2015-11-27 12:44:01,30,71,18.6,89,11.5,1007.1,4.8,6.5,12,336.0,0
2015-11-27 13:14:01,30,71,18.5,89,11.7,1006.6,5.8,6.8,12,336.0,0
2015-11-27 13:44:01,30,70,18.3,90,11.5,1005.7,5.8,8.5,10,336.0,0
2015-11-27 14:14:01,30,70,18.3,89,11.8,1005.3,3.1,4.4,10,336.0,0
2015-11-27 14:44:01,30,70,18.1,87,11.7,1005.0,5.1,7.1,10,336.0,0
2015-11-27 15:14:01,30,70,18.0,87,11.5,1004.7,5.1,7.1,10,336.0,0
2015-11-27 15:44:01,30,71,17.8,83,11.3,1004.4,3.4,4.8,10,336.0,0
2015-11-27 16:14:01,30,70,17.7,78,11.3,1004.0,5.4,7.1,10,336.0,0
2015-11-27 16:44:01,30,70,17.6,80,11.1,1003.7,3.1,4.8,14,336.0,0
2015-11-27 17:14:01,30,72,17.8,81,11.0,1003.4,3.1,4.4,14,336.0,0
2015-11-27 17:44:01,30,73,18.4,83,10.7,1003.1,3.1,4.1,14,336.0,0
2015-11-27 18:14:01,30,72,18.9,85,10.8,1002.4,3.1,4.4,12,336.0,0
2015-11-27 18:44:01,30,72,19.0,83,10.8,1002.2,4.8,6.1,14,336.0,0
2015-11-27 19:14:01,30,72,19.3,80,11.0,1001.7,3.1,4.4,12,336.0,0
2015-11-27 19:44:01,30,72,19.5,83,10.8,1001.4,3.1,5.1,12,336.0,0
2015-11-27 20:14:01,30,71,19.7,85,10.8,1000.9,3.7,5.4,9,336.0,0
2015-11-27 20:44:01,30,71,19.9,88,10.1,1001.9,3.1,4.4,2,336.3,0
2015-11-27 21:14:01,30,70,20.0,84,8.4,1002.5,1.4,2.4,8,336.3,0
2015-11-27 21:44:01,30,70,20.0,86,7.9,1003.3,1.0,2.7,14,336.6,0
2015-11-27 22:14:01,30,69,20.0,87,7.5,1003.6,2.0,3.4,0,336.6,0
2015-11-27 22:44:01,30,71,19.8,87,7.5,1004.1,0.7,1.7,0,336.9,0
2015-11-27 23:14:01,30,71,19.5,83,5.7,1005.6,2.0,4.4,14,336.9,0
2015-11-27 23:44:01,30,71,19.2,80,5.2,1006.7,1.7,2.0,8,336.9,0
