2015-11-22 00:13:00,30,66,16.7,64,0.5,1008.6,0.3,1.0,6,326.7,0
2015-11-22 00:43:00,30,66,16.5,64,0.5,1008.8,0,0.3,12,326.7,0
2015-11-22 01:13:00,30,66,16.2,64,0.1,1009.0,0,0,12,326.7,0
2015-11-22 01:43:00,30,66,16.0,66,-0.3,1008.9,0.3,1.0,6,326.7,0
2015-11-22 02:13:00,30,67,15.8,66,-0.4,1008.8,0,1.0,8,326.7,0
2015-11-22 02:43:00,30,67,15.5,67,-0.7,1008.8,0.7,1.0,8,326.7,0
2015-11-22 03:13:00,30,67,15.3,68,-1.1,1008.5,0.3,1.4,1,326.7,0
2015-11-22 03:43:00,30,67,15.1,71,-1.7,1008.5,0,0.3,8,326.7,0
2015-11-22 04:13:00,30,68,14.9,72,-1.7,1008.5,0,0.7,6,326.7,0
2015-11-22 04:43:00,30,69,14.7,73,-1.7,1009.0,0,0,6,326.7,0
2015-11-22 05:13:00,30,68,14.5,73,-1.8,1009.1,0,0.3,8,326.7,0
2015-11-22 05:43:00,30,68,14.3,69,-2.1,1008.9,0,0.3,8,326.7,0
2015-11-22 06:13:00,30,68,14.1,74,-1.9,1009.3,0.3,1.0,8,326.7,0
2015-11-22 06:43:00,30,70,13.9,75,-1.0,1009.8,0,0.3,6,326.7,0
2015-11-22 07:13:00,30,71,14.3,74,-0.7,1010.0,0.3,1.0,0,326.7,0
2015-11-22 07:43:00,30,71,15.0,74,0,1010.6,0,0,6,326.7,0
2015-11-22 08:13:00,30,71,15.7,72,0.7,1010.7,0,0,6,326.7,0
2015-11-22 08:43:00,30,68,16.1,71,1.1,1010.8,0,0,6,326.7,0
2015-11-22 09:13:00,30,68,16.5,71,1.4,1011.1,0,0.3,8,326.7,0
2015-11-22 09:43:00,30,71,17.2,70,1.9,1011.4,0,0.3,8,326.7,0
2015-11-22 10:13:00,30,68,17.5,68,2.7,1012.0,0.3,1.0,9,326.7,0
2015-11-22 10:43:00,30,66,17.5,69,4.1,1012.1,0,0.7,6,326.7,0
2015-11-22 11:13:00,30,64,17.4,65,4.4,1012.3,0,1.0,11,326.7,0
2015-11-22 11:43:00,30,66,17.7,58,7.0,1012.1,0.7,1.4,6,326.7,0
2015-11-22 12:13:00,30,64,17.9,55,6.4,1012.3,0.3,2.0,14,326.7,0
2015-11-22 12:43:00,30,62,17.8,61,6.2,1012.7,0,0.3,12,326.7,0
2015-11-22 13:13:00,30,62,18.8,58,7.5,1012.9,1.0,1.7,6,326.7,0
2015-11-22 13:43:00,30,61,18.0,62,6.4,1013.0,0.7,1.7,6,326.7,0
2015-11-22 14:13:00,30,62,17.4,66,5.8,1013.7,0,0.7,14,326.7,0
2015-11-22 14:43:00,30,62,17.6,67,5.6,1013.5,0,0.7,14,326.7,0
2015-11-22 15:13:00,30,63,17.9,70,5.2,1014.1,0,0.3,5,326.7,0
2015-11-22 15:43:00,30,64,18.3,73,5.1,1014.4,0.3,1.4,9,326.7,0
2015-11-22 16:13:00,30,65,18.4,75,4.8,1014.3,0,0.7,4,326.7,0
2015-11-22 16:43:00,30,65,18.5,77,4.5,1015.0,0,1.0,3,326.7,0
2015-11-22 17:13:00,30,65,18.6,81,4.8,1015.3,0.7,2.0,1,326.7,0
2015-11-22 17:43:00,30,66,18.6,82,4.6,1015.7,0.3,1.0,8,326.7,0
2015-11-22 18:13:00,30,66,18.8,84,3.8,1016.2,0,0.7,8,326.7,0
2015-11-22 18:43:00,30,66,18.9,85,3.7,1016.7,1.0,2.4,2,326.7,0
2015-11-22 19:13:00,30,65,18.9,86,3.5,1016.9,0.3,1.4,6,326.7,0
2015-11-22 19:43:00,30,65,18.9,82,2.9,1017.0,0.3,0.7,5,326.7,0
2015-11-22 20:13:00,30,64,19.0,82,2.6,1017.7,0.3,1.0,2,326.7,0
2015-11-22 20:43:00,30,64,19.0,82,2.2,1018.1,0,0,6,326.7,0
2015-11-22 21:13:00,30,63,19.1,83,2.2,1018.0,0.3,1.0,4,326.7,0
2015-11-22 21:43:00,30,63,19.1,84,2.1,1018.2,0.3,1.0,4,326.7,0
2015-11-22 22:13:00,30,62,19.0,85,2.0,1018.6,0.3,1.0,3,326.7,0
2015-11-22 22:43:00,30,62,18.7,86,1.8,1019.0,0.3,1.7,0,326.7,0
2015-11-22 23:13:00,30,63,18.3,87,1.7,1019.1,0.7,1.0,4,326.7,0
2015-11-22 23:43:00,30,64,17.9,87,1.4,1019.9,0,1.0,5,326.7,0
