2015-11-17 00:11:01,30,70,19.4,90,12.0,1003.8,2.4,3.4,10,309.9,0
2015-11-17 00:41:01,30,70,19.2,91,12.0,1003.5,1.0,1.7,10,311.1,0
2015-11-17 01:11:01,30,70,19.2,91,12.0,1002.6,1.7,2.7,10,311.4,0
2015-11-17 01:41:01,30,71,19.1,92,12.1,1001.8,1.0,1.7,10,311.4,0
2015-11-17 02:11:01,30,71,19.1,93,12.1,1001.2,0.3,1.0,4,311.7,0
2015-11-17 02:41:01,30,71,19.0,93,12.3,1000.5,2.4,3.4,10,311.7,0
2015-11-17 03:11:01,30,72,18.8,94,13.0,1000.4,2.7,3.7,10,311.7,0
2015-11-17 03:41:01,30,72,18.8,93,13.0,1000.4,1.7,2.7,10,312.0,0
2015-11-17 04:11:01,30,72,18.8,93,13.1,1000.8,2.4,4.1,15,312.0,0
2015-11-17 04:41:01,30,73,18.7,93,13.3,1001.1,2.4,3.4,12,312.0,0
2015-11-17 05:11:01,30,73,18.7,89,14.0,1001.5,2.7,4.1,2,312.3,0
2015-11-17 05:41:01,30,73,18.6,88,13.9,1001.9,2.4,3.7,14,312.3,0
2015-11-17 06:11:00,30,73,18.6,87,13.6,1002.0,2.7,5.4,0,312.3,0
2015-11-17 06:41:00,30,74,18.6,87,13.1,1002.4,3.4,4.8,14,312.3,0
2015-11-17 07:11:00,30,74,19.1,86,13.0,1002.7,1.4,2.4,0,312.3,0
2015-11-17 07:41:00,30,75,19.8,84,13.1,1003.4,2.0,3.4,14,312.3,0
2015-11-17 08:11:01,30,76,20.1,84,13.1,1003.3,2.0,2.7,14,312.3,0
2015-11-17 08:41:01,30,72,20.1,85,13.0,1003.8,3.1,3.7,14,312.3,0
2015-11-17 09:11:01,30,71,20.0,85,13.2,1003.9,2.7,4.1,9,312.3,0
2015-11-17 09:41:01,30,70,20.0,85,13.1,1003.9,3.4,5.4,10,312.3,0
2015-11-17 10:11:01,30,71,20.1,83,13.5,1003.6,3.7,4.8,10,312.3,0
2015-11-17 10:41:01,30,71,20.0,80,13.7,1003.6,4.4,6.1,15,312.3,0
2015-11-17 11:11:01,30,71,19.9,78,13.9,1003.6,3.1,5.4,12,312.3,0
2015-11-17 11:41:01,30,70,20.0,73,14.2,1003.1,5.4,7.1,14,312.3,0
2015-11-17 12:11:01,30,70,20.0,74,13.8,1002.5,5.1,6.8,10,312.3,0
2015-11-17 12:41:01,30,70,19.9,74,13.7,1001.8,5.8,8.5,14,312.3,0
2015-11-17 13:12:01,31,70,19.6,76,13.6,1001.1,3.4,5.8,14,312.3,0
2015-11-17 13:42:01,30,71,19.3,84,12.9,1000.3,4.1,5.4,10,313.2,0
2015-11-17 14:12:01,30,71,19.3,91,13.7,999.0,5.4,7.1,9,313.8,0
2015-11-17 14:42:01,30,71,19.1,91,14.0,998.2,7.5,8.8,0,314.1,0
2015-11-17 15:12:01,30,71,19.1,92,14.4,997.6,5.8,8.5,10,314.1,0
2015-11-17 15:42:01,30,73,18.9,88,15.0,997.2,6.1,8.8,11,314.1,0
2015-11-17 16:12:01,30,73,18.7,88,15.1,996.8,6.8,9.2,12,314.1,0
2015-11-17 16:42:01,30,74,18.7,84,15.2,996.9,5.1,8.2,11,314.1,0
2015-11-17 17:12:01,30,75,19.1,87,15.0,997.3,3.7,5.1,10,314.7,0
2015-11-17 17:42:01,30,75,19.5,72,15.2,997.5,6.1,9.5,12,314.7,0
2015-11-17 18:13:01,30,74,19.7,73,15.0,997.9,4.8,7.8,12,314.7,0
2015-11-17 18:43:01,30,74,19.7,62,15.4,998.5,7.8,11.2,,315.0,2048
2015-11-17 19:13:01,30,73,19.7,63,15.1,998.2,5.8,9.9,10,315.3,0
2015-11-17 19:43:01,30,73,19.7,69,14.6,998.4,4.1,5.1,13,315.6,0
2015-11-17 20:13:01,30,74,19.7,67,14.6,998.1,7.5,12.2,12,315.6,0
2015-11-17 20:43:01,30,74,19.7,61,14.5,998.5,7.8,10.2,14,315.9,0
2015-11-17 21:13:01,30,74,19.6,60,14.7,999.4,5.4,7.5,14,316.2,0
2015-11-17 21:43:01,30,74,19.6,60,14.4,999.5,5.4,9.9,5,318.3,0
2015-11-17 22:13:01,30,73,19.6,59,13.9,1000.6,7.5,12.2,14,319.5,0
2015-11-17 22:43:01,30,73,19.6,58,13.7,1001.2,5.1,7.1,14,319.5,0
2015-11-17 23:13:01,30,72,19.5,60,13.3,1002.6,5.1,12.6,12,319.5,0
2015-11-17 23:43:01,30,72,19.3,60,13.1,1003.5,6.1,10.9,14,319.5,0
