2015-11-20 00:13:00,30,75,18.4,84,9.2,1011.3,1.7,2.7,14,324.0,0
2015-11-20 00:43:00,30,75,18.2,83,9.1,1011.4,0.7,1.7,6,324.0,0
2015-11-20 01:13:00,30,75,18.1,84,9.1,1011.2,1.7,3.1,11,324.0,0
2015-11-20 01:43:00,30,76,17.9,84,9.1,1010.8,1.7,2.4,2,324.0,0
2015-11-20 02:13:00,30,76,17.9,81,9.0,1011.0,0.3,1.4,10,324.0,0
2015-11-20 02:43:00,30,76,17.7,78,8.9,1010.7,1.4,3.1,14,324.0,0
2015-11-20 03:13:00,30,76,17.6,78,8.9,1010.8,1.7,2.4,5,324.0,0
2015-11-20 03:43:00,30,76,17.5,81,8.7,1010.1,1.4,2.0,12,324.0,0
2015-11-20 04:13:00,30,76,17.4,81,8.7,1010.0,1.4,2.0,2,324.0,0
2015-11-20 04:43:00,30,77,17.3,77,8.4,1009.2,1.0,2.0,10,324.0,0
2015-11-20 05:13:00,30,77,17.3,73,8.2,1009.2,1.0,2.4,12,324.0,0
2015-11-20 05:43:00,30,77,17.2,72,7.9,1009.3,0,0,4,324.0,0
2015-11-20 06:13:00,30,77,17.1,76,7.9,1008.3,1.4,2.0,14,324.0,0
2015-11-20 06:43:00,30,77,17.0,78,8.0,1008.4,0.7,1.4,12,324.0,0
2015-11-20 07:13:00,30,79,17.3,78,8.1,1007.9,1.7,2.0,11,324.0,0
2015-11-20 07:43:00,30,79,17.9,76,8.0,1007.8,0.3,1.4,9,324.0,0
2015-11-20 08:13:00,30,76,18.3,75,7.9,1007.4,2.0,3.4,10,324.0,0
2015-11-20 08:43:00,30,76,18.6,75,8.0,1007.0,0.3,1.4,12,324.0,0
2015-11-20 09:13:00,30,75,18.7,75,8.0,1007.0,1.0,1.4,8,324.0,0
2015-11-20 09:43:00,30,74,18.8,74,8.3,1007.2,1.4,2.4,10,324.0,0
2015-11-20 10:13:00,30,72,18.9,73,8.6,1006.8,0.7,1.4,10,324.0,0
2015-11-20 10:43:00,30,69,18.8,73,8.6,1006.2,1.4,2.0,10,324.0,0
2015-11-20 11:13:00,30,67,18.6,72,8.6,1006.1,1.0,1.7,8,324.0,0
2015-11-20 11:43:00,30,68,18.4,70,8.9,1005.4,1.0,1.7,14,324.0,0
2015-11-20 12:13:00,30,69,18.6,62,10.8,1004.7,1.7,3.7,12,324.0,0
2015-11-20 12:43:00,30,69,19.1,60,10.5,1004.6,1.4,2.7,0,324.0,0
2015-11-20 13:13:00,30,64,21.3,51,12.3,1003.7,1.4,2.4,4,324.0,0
2015-11-20 13:43:00,30,61,24.1,50,12.3,1002.8,1.7,3.7,11,324.0,0
2015-11-20 14:13:00,30,53,24.6,51,11.0,1002.7,1.0,2.0,10,324.0,0
2015-11-20 14:43:00,30,50,25.4,50,11.7,1002.4,1.0,1.4,6,324.0,0
2015-11-20 15:13:00,30,53,22.5,51,10.8,1002.2,1.0,3.1,4,324.0,0
2015-11-20 15:43:00,30,60,20.9,53,9.9,1002.0,1.0,2.4,6,324.0,0
2015-11-20 16:13:00,30,63,19.7,62,8.0,1001.6,2.0,3.7,8,324.0,0
2015-11-20 16:43:00,30,69,19.1,66,7.3,1001.8,2.7,4.8,14,324.0,0
2015-11-20 17:13:00,30,72,19.0,67,7.2,1001.5,1.0,2.0,4,324.0,0
2015-11-20 17:43:00,30,71,19.2,68,7.2,1001.5,1.7,3.4,10,324.0,0
2015-11-20 18:13:00,30,70,19.2,65,7.6,1001.2,3.1,5.4,14,324.0,0
2015-11-20 18:43:00,30,69,19.1,64,7.7,1001.0,2.4,4.1,11,324.0,0
2015-11-20 19:13:00,30,69,19.0,65,7.5,1000.5,1.4,2.0,14,324.0,0
2015-11-20 19:43:00,30,70,19.0,68,7.0,1000.6,2.4,3.1,12,324.0,0
2015-11-20 20:13:00,30,71,19.1,70,6.6,1000.4,2.0,4.1,13,324.0,0
2015-11-20 20:43:00,30,70,19.0,70,6.2,1000.4,0.7,1.4,6,324.0,0
2015-11-20 21:13:00,30,70,19.0,72,5.8,1000.2,2.0,3.4,0,324.0,0
2015-11-20 21:43:00,30,70,19.0,73,5.3,999.9,1.4,2.7,14,324.0,0
2015-11-20 22:13:00,30,70,18.7,74,5.3,999.9,1.0,1.7,6,324.0,0
2015-11-20 22:43:00,30,71,18.6,74,5.3,999.5,0.3,1.4,4,324.0,0
2015-11-20 23:13:00,30,71,18.3,75,4.2,999.3,1.7,3.1,14,324.0,0
2015-11-20 23:43:00,30,71,18.1,80,3.5,999.1,2.0,2.7,14,324.0,0
